timeStamp,elapsed,label,responseCode,responseMessage,threadName,dataType,success,failureMessage,bytes,sentBytes,grpThreads,allThreads,Latency,IdleTime,Connect
1537177111529,669,extract DWRSESSIONID cookie,200,OK,execute test 1-1,text,true,,652,344,1,1,669,0,90
1537177112223,11219,test user login,200,OK,execute test 1-1,text,true,,467,295,1,1,11219,0,0
1537177123524,165,username request,200,OK,execute test 1-1,text,true,,603,275,1,1,165,0,3
1537177123707,67665,SchedulerService,200,OK,execute test 1-1,text,true,,277442,786,1,1,67663,0,0
1537177191379,7561,load page of Events,200,OK,execute test 1-1,text,true,,294290,2281,1,1,7559,0,4
1537177198944,1908,load page of Events,200,OK,execute test 1-1,text,true,,292174,2281,1,1,1903,0,2
1537177200857,1962,load page of Events,200,OK,execute test 1-1,text,true,,297871,2281,1,1,1956,0,0
1537177202822,1902,load page of Events,200,OK,execute test 1-1,text,true,,294770,2281,1,1,1900,0,2
1537177204729,1870,load page of Events,200,OK,execute test 1-1,text,true,,291141,2281,1,1,1867,0,0
1537177206603,1823,load page of Events,200,OK,execute test 1-1,text,true,,295846,2281,1,1,1821,0,2
1537177208430,1748,load page of Events,200,OK,execute test 1-1,text,true,,293415,2281,1,1,1745,0,0
1537177210182,1804,load page of Events,200,OK,execute test 1-1,text,true,,290343,2281,1,1,1802,0,3
1537177211991,1731,load page of Events,200,OK,execute test 1-1,text,true,,297433,2281,1,1,1730,0,0
1537177213725,1656,load page of Events,200,OK,execute test 1-1,text,true,,299584,2281,1,1,1654,0,2
1537177215384,1848,load page of Events,200,OK,execute test 1-1,text,true,,302506,2282,1,1,1847,0,0
1537177217238,2036,load page of Events,200,OK,execute test 1-1,text,true,,294247,2282,1,1,2035,0,3
1537177219278,1831,load page of Events,200,OK,execute test 1-1,text,true,,298165,2282,1,1,1829,0,3
1537177221113,1853,load page of Events,200,OK,execute test 1-1,text,true,,291208,2282,1,1,1852,0,0
1537177222969,1414,load page of Events,200,OK,execute test 1-1,text,true,,258663,2282,1,1,1411,0,3
1537177224386,1377,load page of Events,200,OK,execute test 1-1,text,true,,258825,2282,1,1,1375,0,0
1537177225766,1459,load page of Events,200,OK,execute test 1-1,text,true,,256064,2282,1,1,1457,0,2
1537177227228,1762,load page of Events,200,OK,execute test 1-1,text,true,,295433,2282,1,1,1760,0,0
1537177228994,1803,load page of Events,200,OK,execute test 1-1,text,true,,299657,2282,1,1,1800,0,4
1537177230803,2030,load page of Events,200,OK,execute test 1-1,text,true,,295153,2282,1,1,2028,0,0
1537177232837,1893,load page of Events,200,OK,execute test 1-1,text,true,,294195,2282,1,1,1891,0,3
1537177234734,1797,load page of Events,200,OK,execute test 1-1,text,true,,293300,2282,1,1,1794,0,0
1537177236535,1827,load page of Events,200,OK,execute test 1-1,text,true,,292750,2282,1,1,1824,0,3
1537177238365,1879,load page of Events,200,OK,execute test 1-1,text,true,,292176,2282,1,1,1877,0,0
1537177240248,1691,load page of Events,200,OK,execute test 1-1,text,true,,292965,2282,1,1,1689,0,3
1537177241943,2078,load page of Events,200,OK,execute test 1-1,text,true,,292070,2282,1,1,2076,0,0
1537177244025,1990,load page of Events,200,OK,execute test 1-1,text,true,,292194,2282,1,1,1987,0,3
1537177246019,1854,load page of Events,200,OK,execute test 1-1,text,true,,292191,2282,1,1,1853,0,0
1537177247877,1979,load page of Events,200,OK,execute test 1-1,text,true,,292187,2282,1,1,1977,0,3
1537177249859,2017,load page of Events,200,OK,execute test 1-1,text,true,,292173,2282,1,1,2014,0,0
1537177251879,2219,load page of Events,200,OK,execute test 1-1,text,true,,292756,2282,1,1,2191,0,3
1537177254105,1985,load page of Events,200,OK,execute test 1-1,text,true,,292602,2282,1,1,1983,0,3
1537177256093,1964,load page of Events,200,OK,execute test 1-1,text,true,,292339,2282,1,1,1962,0,0
1537177258061,1379,load page of Events,200,OK,execute test 1-1,text,true,,210661,2282,1,1,1377,0,2
1537177259442,226,load page of Events,200,OK,execute test 1-1,text,true,,825,2282,1,1,225,0,0
1537177259670,276,load page of Events,200,OK,execute test 1-1,text,true,,825,2282,1,1,276,0,0
1537177259948,243,load page of Events,200,OK,execute test 1-1,text,true,,825,2282,1,1,243,0,0
1537177260195,238,load page of Events,200,OK,execute test 1-1,text,true,,825,2282,1,1,238,0,3
1537177260436,245,load page of Events,200,OK,execute test 1-1,text,true,,825,2282,1,1,245,0,0
1537177260684,230,load page of Events,200,OK,execute test 1-1,text,true,,825,2282,1,1,230,0,0
1537177260917,241,load page of Events,200,OK,execute test 1-1,text,true,,825,2282,1,1,241,0,0
1537177261161,261,load page of Events,200,OK,execute test 1-1,text,true,,825,2282,1,1,261,0,0
1537177261424,225,load page of Events,200,OK,execute test 1-1,text,true,,825,2282,1,1,225,0,0
1537177261650,242,load page of Events,200,OK,execute test 1-1,text,true,,825,2282,1,1,242,0,0
1537177261894,250,load page of Events,200,OK,execute test 1-1,text,true,,825,2282,1,1,250,0,0
1537177262145,234,load page of Events,200,OK,execute test 1-1,text,true,,825,2282,1,1,234,0,0
1537177262381,236,load page of Events,200,OK,execute test 1-1,text,true,,825,2282,1,1,236,0,2
1537177262619,235,load page of Events,200,OK,execute test 1-1,text,true,,825,2282,1,1,234,0,0
1537177262855,231,load page of Events,200,OK,execute test 1-1,text,true,,825,2282,1,1,231,0,0
1537177263088,215,load page of Events,200,OK,execute test 1-1,text,true,,825,2282,1,1,215,0,0
1537177263305,1806,load page of Pages,200,OK,execute test 1-1,text,true,,143185,1995,1,1,1805,0,0
1537177265112,1699,load page of Pages,200,OK,execute test 1-1,text,true,,142334,1995,1,1,1697,0,2
1537177266811,14414,load page of Resources,200,OK,execute test 1-1,text,true,,169429,2126,1,1,14411,0,0
1537177281226,13582,load page of Resources,200,OK,execute test 1-1,text,true,,169429,2126,1,1,13581,0,3
1537177294811,12393,load page of Resources,200,OK,execute test 1-1,text,true,,169429,2126,1,1,12391,0,3
1537177307207,13013,load page of Resources,200,OK,execute test 1-1,text,true,,169429,2126,1,1,13011,0,4
1537177320223,13091,load page of Resources,200,OK,execute test 1-1,text,true,,169429,2126,1,1,13089,0,3
1537177333317,12466,load page of Resources,200,OK,execute test 1-1,text,true,,169429,2126,1,1,12465,0,4
1537177345784,12655,load page of Resources,200,OK,execute test 1-1,text,true,,169429,2126,1,1,12653,0,3
1537177358441,12225,load page of Resources,200,OK,execute test 1-1,text,true,,169429,2126,1,1,12223,0,2
1537177370670,12158,load page of Resources,200,OK,execute test 1-1,text,true,,169429,2126,1,1,12157,0,4
1537177382831,12146,load page of Resources,200,OK,execute test 1-1,text,true,,169429,2126,1,1,12145,0,2
1537177394979,12192,load page of Resources,200,OK,execute test 1-1,text,true,,169429,2126,1,1,12190,0,3
1537177407173,12109,load page of Resources,200,OK,execute test 1-1,text,true,,169429,2126,1,1,12106,0,4
1537177419285,11774,load page of Resources,200,OK,execute test 1-1,text,true,,169429,2126,1,1,11773,0,3
1537177431060,12132,load page of Resources,200,OK,execute test 1-1,text,true,,169429,2126,1,1,12130,0,3
1537177443196,12398,load page of Resources,200,OK,execute test 1-1,text,true,,169429,2126,1,1,12397,0,3
1537177455598,12122,load page of Resources,200,OK,execute test 1-1,text,true,,169429,2126,1,1,12121,0,2
1537177467721,12323,load page of Resources,200,OK,execute test 1-1,text,true,,169429,2126,1,1,12321,0,2
1537177480046,13266,load page of Resources,200,OK,execute test 1-1,text,true,,169429,2126,1,1,13264,0,3
1537177493313,12142,load page of Resources,200,OK,execute test 1-1,text,true,,169429,2126,1,1,12140,0,3
1537177505459,12981,load page of Resources,200,OK,execute test 1-1,text,true,,169429,2126,1,1,12980,0,3
1537177518442,219,logout,200,OK,execute test 1-1,,true,,311,342,1,1,219,0,3
1537177518662,7,extract DWRSESSIONID cookie,200,OK,execute test 1-1,text,true,,653,344,1,1,7,0,0
1537177518670,8156,test user login,200,OK,execute test 1-1,text,true,,469,295,1,1,8156,0,0
1537177526827,107,username request,200,OK,execute test 1-1,text,true,,603,277,1,1,107,0,2
1537177526937,64695,SchedulerService,200,OK,execute test 1-1,text,true,,277442,788,1,1,64693,0,0
1537177591637,1765,load page of Events,200,OK,execute test 1-1,text,true,,294290,2283,1,1,1763,0,3
1537177593405,1805,load page of Events,200,OK,execute test 1-1,text,true,,292174,2283,1,1,1804,0,0
1537177595212,1886,load page of Events,200,OK,execute test 1-1,text,true,,297871,2283,1,1,1884,0,2
1537177597100,1742,load page of Events,200,OK,execute test 1-1,text,true,,294770,2283,1,1,1741,0,0
1537177598844,1735,load page of Events,200,OK,execute test 1-1,text,true,,291141,2283,1,1,1731,0,3
1537177600581,1812,load page of Events,200,OK,execute test 1-1,text,true,,295846,2283,1,1,1811,0,0
1537177602396,1744,load page of Events,200,OK,execute test 1-1,text,true,,293415,2283,1,1,1742,0,3
1537177604143,1884,load page of Events,200,OK,execute test 1-1,text,true,,290343,2283,1,1,1882,0,0
1537177606029,1690,load page of Events,200,OK,execute test 1-1,text,true,,297433,2283,1,1,1688,0,2
1537177607722,1797,load page of Events,200,OK,execute test 1-1,text,true,,299584,2283,1,1,1795,0,0
1537177609522,1808,load page of Events,200,OK,execute test 1-1,text,true,,302506,2284,1,1,1806,0,3
1537177611333,1743,load page of Events,200,OK,execute test 1-1,text,true,,294247,2284,1,1,1741,0,0
1537177613078,1736,load page of Events,200,OK,execute test 1-1,text,true,,298165,2284,1,1,1734,0,3
1537177614816,1717,load page of Events,200,OK,execute test 1-1,text,true,,291208,2284,1,1,1715,0,0
1537177616536,1387,load page of Events,200,OK,execute test 1-1,text,true,,258663,2284,1,1,1385,0,3
1537177617926,1399,load page of Events,200,OK,execute test 1-1,text,true,,258825,2284,1,1,1397,0,0
1537177619326,1475,load page of Events,200,OK,execute test 1-1,text,true,,256064,2284,1,1,1474,0,3
1537177620805,1887,load page of Events,200,OK,execute test 1-1,text,true,,295433,2284,1,1,1885,0,0
1537177622694,1941,load page of Events,200,OK,execute test 1-1,text,true,,299657,2284,1,1,1939,0,2
1537177624638,2320,load page of Events,200,OK,execute test 1-1,text,true,,295153,2284,1,1,2318,0,0
1537177626959,2483,load page of Events,200,OK,execute test 1-1,text,true,,294195,2284,1,1,2479,0,3
1537177629444,2490,load page of Events,200,OK,execute test 1-1,text,true,,293300,2284,1,1,2487,0,3
1537177631936,2111,load page of Events,200,OK,execute test 1-1,text,true,,292750,2284,1,1,2108,0,2
1537177634049,2077,load page of Events,200,OK,execute test 1-1,text,true,,292176,2284,1,1,2074,0,3
1537177636128,2299,load page of Events,200,OK,execute test 1-1,text,true,,292965,2284,1,1,2298,0,3
1537177638429,2253,load page of Events,200,OK,execute test 1-1,text,true,,292070,2284,1,1,2249,0,3
1537177640684,2054,load page of Events,200,OK,execute test 1-1,text,true,,292194,2284,1,1,2051,0,3
1537177642741,2286,load page of Events,200,OK,execute test 1-1,text,true,,292191,2284,1,1,2283,0,3
1537177645031,2043,load page of Events,200,OK,execute test 1-1,text,true,,292187,2284,1,1,2041,0,3
1537177647079,2002,load page of Events,200,OK,execute test 1-1,text,true,,292173,2284,1,1,2000,0,3
1537177649085,2063,load page of Events,200,OK,execute test 1-1,text,true,,292756,2284,1,1,2061,0,3
1537177651154,2017,load page of Events,200,OK,execute test 1-1,text,true,,292602,2284,1,1,2006,0,3
1537177653176,1846,load page of Events,200,OK,execute test 1-1,text,true,,292339,2284,1,1,1845,0,2
1537177655024,1424,load page of Events,200,OK,execute test 1-1,text,true,,210661,2284,1,1,1422,0,0
1537177656449,251,load page of Events,200,OK,execute test 1-1,text,true,,825,2284,1,1,251,0,2
1537177656700,239,load page of Events,200,OK,execute test 1-1,text,true,,825,2284,1,1,239,0,0
1537177656940,232,load page of Events,200,OK,execute test 1-1,text,true,,825,2284,1,1,232,0,0
1537177657174,255,load page of Events,200,OK,execute test 1-1,text,true,,825,2284,1,1,255,0,0
1537177657431,253,load page of Events,200,OK,execute test 1-1,text,true,,825,2284,1,1,253,0,0
1537177657686,226,load page of Events,200,OK,execute test 1-1,text,true,,825,2284,1,1,226,0,0
1537177657913,221,load page of Events,200,OK,execute test 1-1,text,true,,825,2284,1,1,221,0,0
1537177658136,298,load page of Events,200,OK,execute test 1-1,text,true,,825,2284,1,1,298,0,0
1537177658436,257,load page of Events,200,OK,execute test 1-1,text,true,,825,2284,1,1,257,0,0
1537177658695,223,load page of Events,200,OK,execute test 1-1,text,true,,825,2284,1,1,222,0,2
1537177658919,239,load page of Events,200,OK,execute test 1-1,text,true,,825,2284,1,1,239,0,0
1537177659160,231,load page of Events,200,OK,execute test 1-1,text,true,,825,2284,1,1,231,0,0
1537177659395,214,load page of Events,200,OK,execute test 1-1,text,true,,825,2284,1,1,214,0,0
1537177659614,242,load page of Events,200,OK,execute test 1-1,text,true,,825,2284,1,1,242,0,0
1537177659858,243,load page of Events,200,OK,execute test 1-1,text,true,,825,2284,1,1,243,0,0
1537177660103,256,load page of Events,200,OK,execute test 1-1,text,true,,825,2284,1,1,256,0,0
1537177660361,1449,load page of Pages,200,OK,execute test 1-1,text,true,,143185,1997,1,1,1448,0,0
1537177661812,1407,load page of Pages,200,OK,execute test 1-1,text,true,,142334,1997,1,1,1406,0,3
1537177663221,12635,load page of Resources,200,OK,execute test 1-1,text,true,,169429,2128,1,1,12634,0,0
1537177675859,12780,load page of Resources,200,OK,execute test 1-1,text,true,,169429,2128,1,1,12779,0,2
1537177688640,12944,load page of Resources,200,OK,execute test 1-1,text,true,,169429,2128,1,1,12943,0,3
1537177701587,12158,load page of Resources,200,OK,execute test 1-1,text,true,,169429,2128,1,1,12156,0,1
1537177713749,12539,load page of Resources,200,OK,execute test 1-1,text,true,,169429,2128,1,1,12537,0,3
1537177726289,11946,load page of Resources,200,OK,execute test 1-1,text,true,,169429,2128,1,1,11945,0,3
1537177738238,12859,load page of Resources,200,OK,execute test 1-1,text,true,,169429,2128,1,1,12858,0,3
1537177751098,11884,load page of Resources,200,OK,execute test 1-1,text,true,,169429,2128,1,1,11884,0,4
1537177762984,13762,load page of Resources,200,OK,execute test 1-1,text,true,,169429,2128,1,1,13760,0,6
1537177776747,12328,load page of Resources,200,OK,execute test 1-1,text,true,,169429,2128,1,1,12326,0,3
1537177789076,12152,load page of Resources,200,OK,execute test 1-1,text,true,,169429,2128,1,1,12150,0,3
1537177801232,12786,load page of Resources,200,OK,execute test 1-1,text,true,,169429,2128,1,1,12785,0,3
1537177814019,12245,load page of Resources,200,OK,execute test 1-1,text,true,,169429,2128,1,1,12243,0,3
1537177826266,12720,load page of Resources,200,OK,execute test 1-1,text,true,,169429,2128,1,1,12719,0,3
1537177838988,12253,load page of Resources,200,OK,execute test 1-1,text,true,,169429,2128,1,1,12252,0,3
1537177851243,12295,load page of Resources,200,OK,execute test 1-1,text,true,,169429,2128,1,1,12293,0,3
1537177863542,12128,load page of Resources,200,OK,execute test 1-1,text,true,,169429,2128,1,1,12126,0,2
1537177875671,12241,load page of Resources,200,OK,execute test 1-1,text,true,,169429,2128,1,1,12240,0,3
1537177887914,12217,load page of Resources,200,OK,execute test 1-1,text,true,,169429,2128,1,1,12215,0,2
1537177900133,12042,load page of Resources,200,OK,execute test 1-1,text,true,,169429,2128,1,1,12040,0,3
1537177912177,101,logout,200,OK,execute test 1-1,,true,,311,344,1,1,101,0,3
1537177912280,7,extract DWRSESSIONID cookie,200,OK,execute test 1-1,text,true,,653,344,1,1,7,0,0
1537177912288,7676,test user login,200,OK,execute test 1-1,text,true,,468,295,1,1,7676,0,0
1537177919965,107,username request,200,OK,execute test 1-1,text,true,,603,276,1,1,107,0,3
1537177920077,63960,SchedulerService,200,OK,execute test 1-1,text,true,,277442,787,1,1,63958,0,0
1537177984041,1943,load page of Events,200,OK,execute test 1-1,text,true,,294290,2282,1,1,1941,0,3
1537177985986,1790,load page of Events,200,OK,execute test 1-1,text,true,,292174,2282,1,1,1789,0,0
1537177987778,1673,load page of Events,200,OK,execute test 1-1,text,true,,297871,2282,1,1,1671,0,2
1537177989454,1796,load page of Events,200,OK,execute test 1-1,text,true,,294770,2282,1,1,1794,0,0
1537177991252,1834,load page of Events,200,OK,execute test 1-1,text,true,,291141,2282,1,1,1832,0,4
1537177993087,1778,load page of Events,200,OK,execute test 1-1,text,true,,295846,2282,1,1,1776,0,0
1537177994868,1868,load page of Events,200,OK,execute test 1-1,text,true,,293415,2282,1,1,1866,0,2
1537177996738,1854,load page of Events,200,OK,execute test 1-1,text,true,,290343,2282,1,1,1851,0,0
1537177998594,1939,load page of Events,200,OK,execute test 1-1,text,true,,297433,2282,1,1,1937,0,3
1537178000535,1934,load page of Events,200,OK,execute test 1-1,text,true,,299584,2282,1,1,1932,0,0
1537178002471,2047,load page of Events,200,OK,execute test 1-1,text,true,,302506,2283,1,1,2046,0,3
1537178004520,1907,load page of Events,200,OK,execute test 1-1,text,true,,294247,2283,1,1,1905,0,4
1537178006429,2094,load page of Events,200,OK,execute test 1-1,text,true,,298165,2283,1,1,2092,0,0
1537178008525,2016,load page of Events,200,OK,execute test 1-1,text,true,,291208,2283,1,1,2013,0,3
1537178010544,1633,load page of Events,200,OK,execute test 1-1,text,true,,258663,2283,1,1,1631,0,3
1537178012180,1432,load page of Events,200,OK,execute test 1-1,text,true,,258825,2283,1,1,1430,0,0
1537178013614,1448,load page of Events,200,OK,execute test 1-1,text,true,,256064,2283,1,1,1447,0,3
1537178015064,1761,load page of Events,200,OK,execute test 1-1,text,true,,295433,2283,1,1,1759,0,0
1537178016827,2023,load page of Events,200,OK,execute test 1-1,text,true,,299657,2283,1,1,2020,0,3
1537178018852,2032,load page of Events,200,OK,execute test 1-1,text,true,,295153,2283,1,1,2029,0,3
1537178020886,2021,load page of Events,200,OK,execute test 1-1,text,true,,294195,2283,1,1,2019,0,2
1537178022908,1866,load page of Events,200,OK,execute test 1-1,text,true,,293300,2283,1,1,1865,0,2
1537178024776,1931,load page of Events,200,OK,execute test 1-1,text,true,,292750,2283,1,1,1929,0,0
1537178026709,1948,load page of Events,200,OK,execute test 1-1,text,true,,292176,2283,1,1,1945,0,3
1537178028658,1827,load page of Events,200,OK,execute test 1-1,text,true,,292965,2283,1,1,1826,0,0
1537178030487,1749,load page of Events,200,OK,execute test 1-1,text,true,,292070,2283,1,1,1746,0,3
1537178032237,1824,load page of Events,200,OK,execute test 1-1,text,true,,292194,2283,1,1,1822,0,0
1537178034063,1700,load page of Events,200,OK,execute test 1-1,text,true,,292191,2283,1,1,1698,0,2
1537178035765,1735,load page of Events,200,OK,execute test 1-1,text,true,,292187,2283,1,1,1733,0,0
1537178037503,1686,load page of Events,200,OK,execute test 1-1,text,true,,292173,2283,1,1,1685,0,2
1537178039191,1685,load page of Events,200,OK,execute test 1-1,text,true,,292756,2283,1,1,1684,0,0
1537178040879,1751,load page of Events,200,OK,execute test 1-1,text,true,,292602,2283,1,1,1748,0,3
1537178042632,1786,load page of Events,200,OK,execute test 1-1,text,true,,292339,2283,1,1,1784,0,0
1537178044421,1331,load page of Events,200,OK,execute test 1-1,text,true,,210661,2283,1,1,1330,0,3
1537178045755,243,load page of Events,200,OK,execute test 1-1,text,true,,825,2283,1,1,243,0,0
1537178046000,241,load page of Events,200,OK,execute test 1-1,text,true,,825,2283,1,1,241,0,0
1537178046243,240,load page of Events,200,OK,execute test 1-1,text,true,,825,2283,1,1,240,0,0
1537178046484,265,load page of Events,200,OK,execute test 1-1,text,true,,825,2283,1,1,265,0,3
1537178046749,233,load page of Events,200,OK,execute test 1-1,text,true,,825,2283,1,1,233,0,0
1537178046983,242,load page of Events,200,OK,execute test 1-1,text,true,,825,2283,1,1,242,0,0
1537178047226,247,load page of Events,200,OK,execute test 1-1,text,true,,825,2283,1,1,247,0,0
1537178047474,230,load page of Events,200,OK,execute test 1-1,text,true,,825,2283,1,1,230,0,0
1537178047706,224,load page of Events,200,OK,execute test 1-1,text,true,,825,2283,1,1,224,0,0
1537178047932,232,load page of Events,200,OK,execute test 1-1,text,true,,825,2283,1,1,231,0,0
1537178048166,258,load page of Events,200,OK,execute test 1-1,text,true,,825,2283,1,1,258,0,0
1537178048425,219,load page of Events,200,OK,execute test 1-1,text,true,,825,2283,1,1,219,0,0
1537178048645,224,load page of Events,200,OK,execute test 1-1,text,true,,825,2283,1,1,224,0,2
1537178048871,230,load page of Events,200,OK,execute test 1-1,text,true,,825,2283,1,1,230,0,0
1537178049103,269,load page of Events,200,OK,execute test 1-1,text,true,,825,2283,1,1,269,0,0
1537178049374,261,load page of Events,200,OK,execute test 1-1,text,true,,825,2283,1,1,261,0,0
1537178049637,1384,load page of Pages,200,OK,execute test 1-1,text,true,,143185,1996,1,1,1383,0,0
1537178051023,1348,load page of Pages,200,OK,execute test 1-1,text,true,,142334,1996,1,1,1347,0,3
1537178052373,12482,load page of Resources,200,OK,execute test 1-1,text,true,,169429,2127,1,1,12481,0,0
1537178064856,12106,load page of Resources,200,OK,execute test 1-1,text,true,,169429,2127,1,1,12105,0,3
1537178076965,12186,load page of Resources,200,OK,execute test 1-1,text,true,,169429,2127,1,1,12185,0,2
1537178089152,12510,load page of Resources,200,OK,execute test 1-1,text,true,,169429,2127,1,1,12508,0,3
1537178101667,12376,load page of Resources,200,OK,execute test 1-1,text,true,,169429,2127,1,1,12374,0,2
1537178114044,12196,load page of Resources,200,OK,execute test 1-1,text,true,,169429,2127,1,1,12194,0,3
1537178126243,12436,load page of Resources,200,OK,execute test 1-1,text,true,,169429,2127,1,1,12433,0,3
1537178138682,11844,load page of Resources,200,OK,execute test 1-1,text,true,,169429,2127,1,1,11842,0,3
1537178150527,11915,load page of Resources,200,OK,execute test 1-1,text,true,,169429,2127,1,1,11914,0,3
1537178162449,13641,load page of Resources,200,OK,execute test 1-1,text,true,,169429,2127,1,1,13638,0,4
1537178176092,12251,load page of Resources,200,OK,execute test 1-1,text,true,,169429,2127,1,1,12250,0,3
1537178188347,12060,load page of Resources,200,OK,execute test 1-1,text,true,,169429,2127,1,1,12058,0,3
1537178200409,12415,load page of Resources,200,OK,execute test 1-1,text,true,,169429,2127,1,1,12414,0,3
1537178212827,12138,load page of Resources,200,OK,execute test 1-1,text,true,,169429,2127,1,1,12137,0,1
1537178224971,12314,load page of Resources,200,OK,execute test 1-1,text,true,,169429,2127,1,1,12312,0,3
1537178237286,12177,load page of Resources,200,OK,execute test 1-1,text,true,,169429,2127,1,1,12175,0,3
1537178249465,12294,load page of Resources,200,OK,execute test 1-1,text,true,,169429,2127,1,1,12293,0,3
1537178261762,12339,load page of Resources,200,OK,execute test 1-1,text,true,,169429,2127,1,1,12336,0,3
1537178274102,12729,load page of Resources,200,OK,execute test 1-1,text,true,,169429,2127,1,1,12728,0,5
1537178286835,12301,load page of Resources,200,OK,execute test 1-1,text,true,,169429,2127,1,1,12298,0,3
1537178299140,130,logout,200,OK,execute test 1-1,,true,,311,343,1,1,130,0,4
1537178299272,8,extract DWRSESSIONID cookie,200,OK,execute test 1-1,text,true,,653,344,1,1,8,0,0
1537178299282,8760,test user login,200,OK,execute test 1-1,text,true,,467,295,1,1,8760,0,0
1537178308043,131,username request,200,OK,execute test 1-1,text,true,,603,275,1,1,131,0,3
1537178308177,61914,SchedulerService,200,OK,execute test 1-1,text,true,,277442,786,1,1,61910,0,0
1537178370096,1497,load page of Events,200,OK,execute test 1-1,text,true,,294290,2281,1,1,1494,0,3
1537178371597,1678,load page of Events,200,OK,execute test 1-1,text,true,,292174,2281,1,1,1675,0,0
1537178373278,1672,load page of Events,200,OK,execute test 1-1,text,true,,297871,2281,1,1,1669,0,3
1537178374953,1797,load page of Events,200,OK,execute test 1-1,text,true,,294770,2281,1,1,1795,0,0
1537178376753,1765,load page of Events,200,OK,execute test 1-1,text,true,,291141,2281,1,1,1763,0,3
1537178378522,1956,load page of Events,200,OK,execute test 1-1,text,true,,295846,2281,1,1,1954,0,0
1537178380481,1716,load page of Events,200,OK,execute test 1-1,text,true,,293415,2281,1,1,1714,0,3
1537178382200,1755,load page of Events,200,OK,execute test 1-1,text,true,,290343,2281,1,1,1752,0,0
1537178383958,1960,load page of Events,200,OK,execute test 1-1,text,true,,297433,2281,1,1,1957,0,2
1537178385921,1864,load page of Events,200,OK,execute test 1-1,text,true,,299584,2281,1,1,1862,0,0
1537178387788,1804,load page of Events,200,OK,execute test 1-1,text,true,,302506,2282,1,1,1802,0,2
1537178389595,1700,load page of Events,200,OK,execute test 1-1,text,true,,294247,2282,1,1,1698,0,0
1537178391299,1825,load page of Events,200,OK,execute test 1-1,text,true,,298165,2282,1,1,1822,0,2
1537178393128,1785,load page of Events,200,OK,execute test 1-1,text,true,,291208,2282,1,1,1783,0,0
1537178394917,1364,load page of Events,200,OK,execute test 1-1,text,true,,258663,2282,1,1,1361,0,3
1537178396285,1308,load page of Events,200,OK,execute test 1-1,text,true,,258825,2282,1,1,1305,0,0
1537178397595,1343,load page of Events,200,OK,execute test 1-1,text,true,,256064,2282,1,1,1341,0,3
1537178398941,1762,load page of Events,200,OK,execute test 1-1,text,true,,295433,2282,1,1,1759,0,0
1537178400708,2012,load page of Events,200,OK,execute test 1-1,text,true,,299657,2282,1,1,2010,0,3
1537178402723,2098,load page of Events,200,OK,execute test 1-1,text,true,,295153,2282,1,1,2096,0,1
1537178404824,2117,load page of Events,200,OK,execute test 1-1,text,true,,294195,2282,1,1,2115,0,3
1537178406946,2168,load page of Events,200,OK,execute test 1-1,text,true,,293300,2282,1,1,2166,0,2
1537178409116,1844,load page of Events,200,OK,execute test 1-1,text,true,,292750,2282,1,1,1842,0,4
1537178410964,1887,load page of Events,200,OK,execute test 1-1,text,true,,292176,2282,1,1,1885,0,0
1537178412854,1816,load page of Events,200,OK,execute test 1-1,text,true,,292965,2282,1,1,1814,0,3
1537178414673,1753,load page of Events,200,OK,execute test 1-1,text,true,,292070,2282,1,1,1750,0,0
1537178416429,1856,load page of Events,200,OK,execute test 1-1,text,true,,292194,2282,1,1,1854,0,2
1537178418288,1630,load page of Events,200,OK,execute test 1-1,text,true,,292191,2282,1,1,1628,0,0
1537178419922,1793,load page of Events,200,OK,execute test 1-1,text,true,,292187,2282,1,1,1791,0,2
1537178421720,1775,load page of Events,200,OK,execute test 1-1,text,true,,292173,2282,1,1,1773,0,0
1537178423499,1844,load page of Events,200,OK,execute test 1-1,text,true,,292756,2282,1,1,1842,0,2
1537178425347,2346,load page of Events,200,OK,execute test 1-1,text,true,,292602,2282,1,1,2344,0,0
1537178427697,1961,load page of Events,200,OK,execute test 1-1,text,true,,292339,2282,1,1,1959,0,3
1537178429662,1421,load page of Events,200,OK,execute test 1-1,text,true,,210661,2282,1,1,1419,0,0
1537178431087,261,load page of Events,200,OK,execute test 1-1,text,true,,825,2282,1,1,261,0,3
1537178431350,371,load page of Events,200,OK,execute test 1-1,text,true,,825,2282,1,1,371,0,0
1537178431722,263,load page of Events,200,OK,execute test 1-1,text,true,,825,2282,1,1,263,0,0
1537178431987,250,load page of Events,200,OK,execute test 1-1,text,true,,825,2282,1,1,250,0,0
1537178432238,262,load page of Events,200,OK,execute test 1-1,text,true,,825,2282,1,1,262,0,0
1537178432502,248,load page of Events,200,OK,execute test 1-1,text,true,,825,2282,1,1,248,0,0
1537178432751,247,load page of Events,200,OK,execute test 1-1,text,true,,825,2282,1,1,247,0,0
1537178433000,238,load page of Events,200,OK,execute test 1-1,text,true,,825,2282,1,1,238,0,0
1537178433240,228,load page of Events,200,OK,execute test 1-1,text,true,,825,2282,1,1,228,0,3
1537178433470,262,load page of Events,200,OK,execute test 1-1,text,true,,825,2282,1,1,262,0,0
1537178433734,222,load page of Events,200,OK,execute test 1-1,text,true,,825,2282,1,1,222,0,0
1537178433958,238,load page of Events,200,OK,execute test 1-1,text,true,,825,2282,1,1,238,0,0
1537178434197,225,load page of Events,200,OK,execute test 1-1,text,true,,825,2282,1,1,225,0,0
1537178434423,248,load page of Events,200,OK,execute test 1-1,text,true,,825,2282,1,1,248,0,0
1537178434672,236,load page of Events,200,OK,execute test 1-1,text,true,,825,2282,1,1,236,0,0
1537178434909,232,load page of Events,200,OK,execute test 1-1,text,true,,825,2282,1,1,232,0,0
1537178435142,1452,load page of Pages,200,OK,execute test 1-1,text,true,,143185,1995,1,1,1450,0,0
1537178436595,1501,load page of Pages,200,OK,execute test 1-1,text,true,,142334,1995,1,1,1499,0,3
1537178438098,12528,load page of Resources,200,OK,execute test 1-1,text,true,,169429,2126,1,1,12526,0,0
1537178450628,12226,load page of Resources,200,OK,execute test 1-1,text,true,,169429,2126,1,1,12224,0,5
1537178462859,12966,load page of Resources,200,OK,execute test 1-1,text,true,,169429,2126,1,1,12965,0,3
1537178475826,12481,load page of Resources,200,OK,execute test 1-1,text,true,,169429,2126,1,1,12480,0,3
1537178488310,13134,load page of Resources,200,OK,execute test 1-1,text,true,,169429,2126,1,1,13132,0,3
1537178501444,12885,load page of Resources,200,OK,execute test 1-1,text,true,,169429,2126,1,1,12884,0,3
1537178514331,12312,load page of Resources,200,OK,execute test 1-1,text,true,,169429,2126,1,1,12311,0,3
1537178526647,12643,load page of Resources,200,OK,execute test 1-1,text,true,,169429,2126,1,1,12642,0,3
1537178539292,11979,load page of Resources,200,OK,execute test 1-1,text,true,,169429,2126,1,1,11978,0,3
1537178551275,12231,load page of Resources,200,OK,execute test 1-1,text,true,,169429,2126,1,1,12229,0,3
1537178563510,12913,load page of Resources,200,OK,execute test 1-1,text,true,,169429,2126,1,1,12912,0,2
1537178576424,13100,load page of Resources,200,OK,execute test 1-1,text,true,,169429,2126,1,1,13098,0,2
1537178589526,12406,load page of Resources,200,OK,execute test 1-1,text,true,,169429,2126,1,1,12404,0,3
1537178601934,12273,load page of Resources,200,OK,execute test 1-1,text,true,,169429,2126,1,1,12272,0,3
1537178614210,11980,load page of Resources,200,OK,execute test 1-1,text,true,,169429,2126,1,1,11979,0,3
1537178626193,12641,load page of Resources,200,OK,execute test 1-1,text,true,,169429,2126,1,1,12640,0,4
1537178638838,11983,load page of Resources,200,OK,execute test 1-1,text,true,,169429,2126,1,1,11982,0,3
1537178650822,12155,load page of Resources,200,OK,execute test 1-1,text,true,,169429,2126,1,1,12153,0,4
1537178662980,12646,load page of Resources,200,OK,execute test 1-1,text,true,,169429,2126,1,1,12645,0,2
1537178675630,12527,load page of Resources,200,OK,execute test 1-1,text,true,,169429,2126,1,1,12525,0,2
1537178688159,121,logout,200,OK,execute test 1-1,,true,,311,342,1,1,121,0,4
1537178688281,12,extract DWRSESSIONID cookie,200,OK,execute test 1-1,text,true,,653,344,1,1,12,0,0
1537178688294,8091,test user login,200,OK,execute test 1-1,text,true,,468,295,1,1,8091,0,0
1537178696387,89,username request,200,OK,execute test 1-1,text,true,,603,276,1,1,89,0,3
1537178696480,62746,SchedulerService,200,OK,execute test 1-1,text,true,,277442,787,1,1,62744,0,0
1537178759228,1755,load page of Events,200,OK,execute test 1-1,text,true,,294290,2282,1,1,1753,0,2
1537178760988,1830,load page of Events,200,OK,execute test 1-1,text,true,,292174,2282,1,1,1827,0,0
1537178762822,1867,load page of Events,200,OK,execute test 1-1,text,true,,297871,2282,1,1,1865,0,2
1537178764694,2243,load page of Events,200,OK,execute test 1-1,text,true,,294770,2282,1,1,2241,0,0
1537178766942,2009,load page of Events,200,OK,execute test 1-1,text,true,,291141,2282,1,1,2007,0,3
1537178768955,1945,load page of Events,200,OK,execute test 1-1,text,true,,295846,2282,1,1,1943,0,2
1537178770903,2019,load page of Events,200,OK,execute test 1-1,text,true,,293415,2282,1,1,2018,0,0
1537178772926,1912,load page of Events,200,OK,execute test 1-1,text,true,,290343,2282,1,1,1910,0,3
1537178774841,1905,load page of Events,200,OK,execute test 1-1,text,true,,297433,2282,1,1,1902,0,0
1537178776749,1780,load page of Events,200,OK,execute test 1-1,text,true,,299584,2282,1,1,1779,0,3
1537178778531,1971,load page of Events,200,OK,execute test 1-1,text,true,,302506,2283,1,1,1968,0,0
1537178780505,1887,load page of Events,200,OK,execute test 1-1,text,true,,294247,2283,1,1,1884,0,3
1537178782395,1872,load page of Events,200,OK,execute test 1-1,text,true,,298165,2283,1,1,1870,0,0
1537178784271,2010,load page of Events,200,OK,execute test 1-1,text,true,,291208,2283,1,1,2008,0,3
1537178786284,1444,load page of Events,200,OK,execute test 1-1,text,true,,258663,2283,1,1,1442,0,4
1537178787730,1334,load page of Events,200,OK,execute test 1-1,text,true,,258825,2283,1,1,1332,0,0
1537178789067,1306,load page of Events,200,OK,execute test 1-1,text,true,,256064,2283,1,1,1304,0,3
1537178790378,1880,load page of Events,200,OK,execute test 1-1,text,true,,295433,2283,1,1,1877,0,0
1537178792262,1831,load page of Events,200,OK,execute test 1-1,text,true,,299657,2283,1,1,1829,0,4
1537178794097,1840,load page of Events,200,OK,execute test 1-1,text,true,,295153,2283,1,1,1838,0,0
1537178795941,1782,load page of Events,200,OK,execute test 1-1,text,true,,294195,2283,1,1,1780,0,3
1537178797727,1765,load page of Events,200,OK,execute test 1-1,text,true,,293300,2283,1,1,1763,0,0
1537178799496,1813,load page of Events,200,OK,execute test 1-1,text,true,,292750,2283,1,1,1811,0,2
1537178801312,1872,load page of Events,200,OK,execute test 1-1,text,true,,292176,2283,1,1,1870,0,0
1537178803187,1923,load page of Events,200,OK,execute test 1-1,text,true,,292965,2283,1,1,1919,0,3
1537178805113,1723,load page of Events,200,OK,execute test 1-1,text,true,,292070,2283,1,1,1719,0,0
1537178806840,1700,load page of Events,200,OK,execute test 1-1,text,true,,292194,2283,1,1,1696,0,3
1537178808542,1750,load page of Events,200,OK,execute test 1-1,text,true,,292191,2283,1,1,1748,0,0
1537178810294,1828,load page of Events,200,OK,execute test 1-1,text,true,,292187,2283,1,1,1825,0,2
1537178812125,1750,load page of Events,200,OK,execute test 1-1,text,true,,292173,2283,1,1,1748,0,0
1537178813878,1876,load page of Events,200,OK,execute test 1-1,text,true,,292756,2283,1,1,1874,0,2
1537178815756,1690,load page of Events,200,OK,execute test 1-1,text,true,,292602,2283,1,1,1688,0,0
1537178817451,1792,load page of Events,200,OK,execute test 1-1,text,true,,292339,2283,1,1,1790,0,3
1537178819247,1411,load page of Events,200,OK,execute test 1-1,text,true,,210661,2283,1,1,1410,0,0
1537178820663,255,load page of Events,200,OK,execute test 1-1,text,true,,825,2283,1,1,255,0,3
1537178820919,224,load page of Events,200,OK,execute test 1-1,text,true,,825,2283,1,1,224,0,0
1537178821144,227,load page of Events,200,OK,execute test 1-1,text,true,,825,2283,1,1,227,0,0
1537178821373,241,load page of Events,200,OK,execute test 1-1,text,true,,825,2283,1,1,241,0,0
1537178821615,224,load page of Events,200,OK,execute test 1-1,text,true,,825,2283,1,1,224,0,0
1537178821840,229,load page of Events,200,OK,execute test 1-1,text,true,,825,2283,1,1,229,0,0
1537178822070,251,load page of Events,200,OK,execute test 1-1,text,true,,825,2283,1,1,251,0,0
1537178822322,231,load page of Events,200,OK,execute test 1-1,text,true,,825,2283,1,1,231,0,0
1537178822554,228,load page of Events,200,OK,execute test 1-1,text,true,,825,2283,1,1,228,0,0
1537178822784,255,load page of Events,200,OK,execute test 1-1,text,true,,825,2283,1,1,255,0,3
1537178823041,249,load page of Events,200,OK,execute test 1-1,text,true,,825,2283,1,1,249,0,0
1537178823291,214,load page of Events,200,OK,execute test 1-1,text,true,,825,2283,1,1,213,0,0
1537178823506,225,load page of Events,200,OK,execute test 1-1,text,true,,825,2283,1,1,225,0,0
1537178823731,221,load page of Events,200,OK,execute test 1-1,text,true,,825,2283,1,1,221,0,0
1537178823953,246,load page of Events,200,OK,execute test 1-1,text,true,,825,2283,1,1,246,0,0
1537178824200,220,load page of Events,200,OK,execute test 1-1,text,true,,825,2283,1,1,220,0,0
1537178824421,1377,load page of Pages,200,OK,execute test 1-1,text,true,,143185,1996,1,1,1376,0,0
1537178825801,1382,load page of Pages,200,OK,execute test 1-1,text,true,,142334,1996,1,1,1381,0,3
1537178827185,12218,load page of Resources,200,OK,execute test 1-1,text,true,,169429,2127,1,1,12216,0,0
1537178839405,13613,load page of Resources,200,OK,execute test 1-1,text,true,,169429,2127,1,1,13612,0,3
1537178853024,12860,load page of Resources,200,OK,execute test 1-1,text,true,,169429,2127,1,1,12859,0,3
1537178865885,12171,load page of Resources,200,OK,execute test 1-1,text,true,,169429,2127,1,1,12170,0,2
1537178878059,12074,load page of Resources,200,OK,execute test 1-1,text,true,,169429,2127,1,1,12073,0,2
1537178890136,12406,load page of Resources,200,OK,execute test 1-1,text,true,,169429,2127,1,1,12405,0,3
1537178902545,11821,load page of Resources,200,OK,execute test 1-1,text,true,,169429,2127,1,1,11820,0,3
1537178914370,12432,load page of Resources,200,OK,execute test 1-1,text,true,,169429,2127,1,1,12431,0,3
1537178926804,11912,load page of Resources,200,OK,execute test 1-1,text,true,,169429,2127,1,1,11910,0,4
1537178938718,12268,load page of Resources,200,OK,execute test 1-1,text,true,,169429,2127,1,1,12267,0,1
1537178950990,15609,load page of Resources,200,OK,execute test 1-1,text,true,,169429,2127,1,1,15607,0,3
1537178966601,11826,load page of Resources,200,OK,execute test 1-1,text,true,,169429,2127,1,1,11825,0,4
1537178978431,12110,load page of Resources,200,OK,execute test 1-1,text,true,,169429,2127,1,1,12108,0,3
1537178990544,12097,load page of Resources,200,OK,execute test 1-1,text,true,,169429,2127,1,1,12096,0,3
1537179002643,11890,load page of Resources,200,OK,execute test 1-1,text,true,,169429,2127,1,1,11889,0,2
1537179014535,12149,load page of Resources,200,OK,execute test 1-1,text,true,,169429,2127,1,1,12148,0,1
1537179026686,12485,load page of Resources,200,OK,execute test 1-1,text,true,,169429,2127,1,1,12484,0,3
1537179039174,12501,load page of Resources,200,OK,execute test 1-1,text,true,,169429,2127,1,1,12500,0,3
1537179051679,12248,load page of Resources,200,OK,execute test 1-1,text,true,,169429,2127,1,1,12247,0,2
1537179063932,12126,load page of Resources,200,OK,execute test 1-1,text,true,,169429,2127,1,1,12125,0,3
1537179076061,147,logout,200,OK,execute test 1-1,,true,,311,343,1,1,147,0,3
1537179076209,5,extract DWRSESSIONID cookie,200,OK,execute test 1-1,text,true,,652,344,1,1,5,0,0
1537179076215,7331,test user login,200,OK,execute test 1-1,text,true,,468,295,1,1,7331,0,0
1537179083549,85,username request,200,OK,execute test 1-1,text,true,,603,276,1,1,85,0,2
1537179083636,62308,SchedulerService,200,OK,execute test 1-1,text,true,,277442,787,1,1,62306,0,0
1537179145947,1771,load page of Events,200,OK,execute test 1-1,text,true,,294290,2282,1,1,1769,0,3
1537179147722,1766,load page of Events,200,OK,execute test 1-1,text,true,,292174,2282,1,1,1764,0,0
1537179149491,1810,load page of Events,200,OK,execute test 1-1,text,true,,297871,2282,1,1,1808,0,3
1537179151305,1930,load page of Events,200,OK,execute test 1-1,text,true,,294770,2282,1,1,1927,0,0
1537179153236,1824,load page of Events,200,OK,execute test 1-1,text,true,,291141,2282,1,1,1822,0,2
1537179155063,1903,load page of Events,200,OK,execute test 1-1,text,true,,295846,2282,1,1,1899,0,0
1537179156969,1921,load page of Events,200,OK,execute test 1-1,text,true,,293415,2282,1,1,1920,0,2
1537179158893,1804,load page of Events,200,OK,execute test 1-1,text,true,,290343,2282,1,1,1803,0,0
1537179160699,2146,load page of Events,200,OK,execute test 1-1,text,true,,297433,2282,1,1,2144,0,1
1537179162847,1998,load page of Events,200,OK,execute test 1-1,text,true,,299584,2282,1,1,1996,0,3
1537179164848,1773,load page of Events,200,OK,execute test 1-1,text,true,,302506,2283,1,1,1771,0,3
1537179166625,1606,load page of Events,200,OK,execute test 1-1,text,true,,294247,2283,1,1,1604,0,0
1537179168234,1851,load page of Events,200,OK,execute test 1-1,text,true,,298165,2283,1,1,1849,0,3
1537179170087,1673,load page of Events,200,OK,execute test 1-1,text,true,,291208,2283,1,1,1671,0,0
1537179171764,1397,load page of Events,200,OK,execute test 1-1,text,true,,258663,2283,1,1,1395,0,1
1537179173164,1357,load page of Events,200,OK,execute test 1-1,text,true,,258825,2283,1,1,1355,0,0
1537179174523,1213,load page of Events,200,OK,execute test 1-1,text,true,,256064,2283,1,1,1212,0,3
1537179175739,1522,load page of Events,200,OK,execute test 1-1,text,true,,295433,2283,1,1,1520,0,0
1537179177263,1656,load page of Events,200,OK,execute test 1-1,text,true,,299657,2283,1,1,1654,0,3
1537179178922,1787,load page of Events,200,OK,execute test 1-1,text,true,,295153,2283,1,1,1786,0,0
1537179180714,1815,load page of Events,200,OK,execute test 1-1,text,true,,294195,2283,1,1,1813,0,1
1537179182532,1732,load page of Events,200,OK,execute test 1-1,text,true,,293300,2283,1,1,1730,0,0
1537179184267,2144,load page of Events,200,OK,execute test 1-1,text,true,,292750,2283,1,1,2143,0,3
1537179186414,1882,load page of Events,200,OK,execute test 1-1,text,true,,292176,2283,1,1,1880,0,2
1537179188298,1767,load page of Events,200,OK,execute test 1-1,text,true,,292965,2283,1,1,1764,0,0
1537179190068,1826,load page of Events,200,OK,execute test 1-1,text,true,,292070,2283,1,1,1823,0,2
1537179191896,1860,load page of Events,200,OK,execute test 1-1,text,true,,292194,2283,1,1,1858,0,0
1537179193759,1939,load page of Events,200,OK,execute test 1-1,text,true,,292191,2283,1,1,1937,0,3
1537179195701,1804,load page of Events,200,OK,execute test 1-1,text,true,,292187,2283,1,1,1803,0,0
1537179197508,1795,load page of Events,200,OK,execute test 1-1,text,true,,292173,2283,1,1,1794,0,3
1537179199306,1645,load page of Events,200,OK,execute test 1-1,text,true,,292756,2283,1,1,1642,0,0
1537179200953,1762,load page of Events,200,OK,execute test 1-1,text,true,,292602,2283,1,1,1760,0,2
1537179202719,1801,load page of Events,200,OK,execute test 1-1,text,true,,292339,2283,1,1,1799,0,0
1537179204522,1317,load page of Events,200,OK,execute test 1-1,text,true,,210661,2283,1,1,1316,0,4
1537179205842,227,load page of Events,200,OK,execute test 1-1,text,true,,825,2283,1,1,227,0,0
1537179206070,242,load page of Events,200,OK,execute test 1-1,text,true,,825,2283,1,1,242,0,0
1537179206313,215,load page of Events,200,OK,execute test 1-1,text,true,,825,2283,1,1,215,0,0
1537179206529,234,load page of Events,200,OK,execute test 1-1,text,true,,825,2283,1,1,234,0,3
1537179206765,227,load page of Events,200,OK,execute test 1-1,text,true,,825,2283,1,1,227,0,0
1537179206993,225,load page of Events,200,OK,execute test 1-1,text,true,,825,2283,1,1,225,0,0
1537179207219,262,load page of Events,200,OK,execute test 1-1,text,true,,825,2283,1,1,262,0,0
1537179207483,230,load page of Events,200,OK,execute test 1-1,text,true,,825,2283,1,1,230,0,0
1537179207714,236,load page of Events,200,OK,execute test 1-1,text,true,,825,2283,1,1,236,0,0
1537179207951,228,load page of Events,200,OK,execute test 1-1,text,true,,825,2283,1,1,228,0,0
1537179208180,235,load page of Events,200,OK,execute test 1-1,text,true,,825,2283,1,1,235,0,0
1537179208416,229,load page of Events,200,OK,execute test 1-1,text,true,,825,2283,1,1,229,0,0
1537179208646,252,load page of Events,200,OK,execute test 1-1,text,true,,825,2283,1,1,252,0,3
1537179208899,235,load page of Events,200,OK,execute test 1-1,text,true,,825,2283,1,1,235,0,0
1537179209135,230,load page of Events,200,OK,execute test 1-1,text,true,,825,2283,1,1,230,0,0
1537179209366,232,load page of Events,200,OK,execute test 1-1,text,true,,825,2283,1,1,232,0,0
1537179209599,1346,load page of Pages,200,OK,execute test 1-1,text,true,,143185,1996,1,1,1345,0,0
1537179210949,1327,load page of Pages,200,OK,execute test 1-1,text,true,,142334,1996,1,1,1326,0,2
1537179212278,12047,load page of Resources,200,OK,execute test 1-1,text,true,,169429,2127,1,1,12046,0,0
1537179224327,12045,load page of Resources,200,OK,execute test 1-1,text,true,,169429,2127,1,1,12044,0,3
1537179236374,12610,load page of Resources,200,OK,execute test 1-1,text,true,,169429,2127,1,1,12609,0,4
1537179248988,12003,load page of Resources,200,OK,execute test 1-1,text,true,,169429,2127,1,1,12002,0,3
1537179260992,12000,load page of Resources,200,OK,execute test 1-1,text,true,,169429,2127,1,1,11999,0,2
1537179272997,12133,load page of Resources,200,OK,execute test 1-1,text,true,,169429,2127,1,1,12132,0,3
1537179285132,11682,load page of Resources,200,OK,execute test 1-1,text,true,,169429,2127,1,1,11681,0,3
1537179296816,12235,load page of Resources,200,OK,execute test 1-1,text,true,,169429,2127,1,1,12234,0,2
1537179309055,12134,load page of Resources,200,OK,execute test 1-1,text,true,,169429,2127,1,1,12133,0,3
1537179321190,12085,load page of Resources,200,OK,execute test 1-1,text,true,,169429,2127,1,1,12083,0,4
1537179333279,12360,load page of Resources,200,OK,execute test 1-1,text,true,,169429,2127,1,1,12359,0,2
1537179345642,12062,load page of Resources,200,OK,execute test 1-1,text,true,,169429,2127,1,1,12061,0,3
1537179357706,12122,load page of Resources,200,OK,execute test 1-1,text,true,,169429,2127,1,1,12121,0,3
1537179369831,12147,load page of Resources,200,OK,execute test 1-1,text,true,,169429,2127,1,1,12146,0,3
1537179381981,12450,load page of Resources,200,OK,execute test 1-1,text,true,,169429,2127,1,1,12449,0,3
1537179394436,12387,load page of Resources,200,OK,execute test 1-1,text,true,,169429,2127,1,1,12386,0,3
1537179406825,12099,load page of Resources,200,OK,execute test 1-1,text,true,,169429,2127,1,1,12098,0,5
1537179418927,12883,load page of Resources,200,OK,execute test 1-1,text,true,,169429,2127,1,1,12882,0,2
1537179431812,12286,load page of Resources,200,OK,execute test 1-1,text,true,,169429,2127,1,1,12285,0,3
1537179444100,12223,load page of Resources,200,OK,execute test 1-1,text,true,,169429,2127,1,1,12221,0,3
1537179456326,97,logout,200,OK,execute test 1-1,,true,,311,343,1,1,97,0,3
1537179456424,6,extract DWRSESSIONID cookie,200,OK,execute test 1-1,text,true,,653,344,1,1,6,0,0
1537179456431,8532,test user login,200,OK,execute test 1-1,text,true,,468,295,1,1,8532,0,0
1537179464964,135,username request,200,OK,execute test 1-1,text,true,,603,276,1,1,135,0,3
1537179465101,66062,SchedulerService,200,OK,execute test 1-1,text,true,,277442,787,1,1,66060,0,0
1537179531166,1702,load page of Events,200,OK,execute test 1-1,text,true,,294290,2282,1,1,1700,0,4
1537179532872,1749,load page of Events,200,OK,execute test 1-1,text,true,,292174,2282,1,1,1746,0,0
1537179534624,1724,load page of Events,200,OK,execute test 1-1,text,true,,297871,2282,1,1,1722,0,3
1537179536350,1713,load page of Events,200,OK,execute test 1-1,text,true,,294770,2282,1,1,1711,0,0
1537179538065,1609,load page of Events,200,OK,execute test 1-1,text,true,,291141,2282,1,1,1607,0,3
1537179539677,1815,load page of Events,200,OK,execute test 1-1,text,true,,295846,2282,1,1,1812,0,0
1537179541496,1773,load page of Events,200,OK,execute test 1-1,text,true,,293415,2282,1,1,1771,0,2
1537179543271,1650,load page of Events,200,OK,execute test 1-1,text,true,,290343,2282,1,1,1648,0,0
1537179544923,1957,load page of Events,200,OK,execute test 1-1,text,true,,297433,2282,1,1,1955,0,3
1537179546882,1794,load page of Events,200,OK,execute test 1-1,text,true,,299584,2282,1,1,1791,0,0
1537179548679,1753,load page of Events,200,OK,execute test 1-1,text,true,,302506,2283,1,1,1750,0,3
1537179550435,1659,load page of Events,200,OK,execute test 1-1,text,true,,294247,2283,1,1,1656,0,0
1537179552099,1820,load page of Events,200,OK,execute test 1-1,text,true,,298165,2283,1,1,1818,0,3
1537179553922,1813,load page of Events,200,OK,execute test 1-1,text,true,,291208,2283,1,1,1812,0,0
1537179555738,1302,load page of Events,200,OK,execute test 1-1,text,true,,258663,2283,1,1,1299,0,2
1537179557043,1277,load page of Events,200,OK,execute test 1-1,text,true,,258825,2283,1,1,1273,0,0
1537179558323,1317,load page of Events,200,OK,execute test 1-1,text,true,,256064,2283,1,1,1315,0,2
1537179559642,1795,load page of Events,200,OK,execute test 1-1,text,true,,295433,2283,1,1,1791,0,0
1537179561441,1749,load page of Events,200,OK,execute test 1-1,text,true,,299657,2283,1,1,1747,0,3
1537179563193,1872,load page of Events,200,OK,execute test 1-1,text,true,,295153,2283,1,1,1870,0,0
1537179565068,1862,load page of Events,200,OK,execute test 1-1,text,true,,294195,2283,1,1,1860,0,3
1537179566933,1779,load page of Events,200,OK,execute test 1-1,text,true,,293300,2283,1,1,1776,0,0
1537179568715,1620,load page of Events,200,OK,execute test 1-1,text,true,,292750,2283,1,1,1617,0,2
1537179570340,1866,load page of Events,200,OK,execute test 1-1,text,true,,292176,2283,1,1,1864,0,0
1537179572209,1821,load page of Events,200,OK,execute test 1-1,text,true,,292965,2283,1,1,1819,0,2
1537179574033,1739,load page of Events,200,OK,execute test 1-1,text,true,,292070,2283,1,1,1736,0,0
1537179575775,1862,load page of Events,200,OK,execute test 1-1,text,true,,292194,2283,1,1,1860,0,3
1537179577640,2573,load page of Events,200,OK,execute test 1-1,text,true,,292191,2283,1,1,2572,0,0
1537179580215,1816,load page of Events,200,OK,execute test 1-1,text,true,,292187,2283,1,1,1814,0,2
1537179582032,1722,load page of Events,200,OK,execute test 1-1,text,true,,292173,2283,1,1,1719,0,0
1537179583757,1824,load page of Events,200,OK,execute test 1-1,text,true,,292756,2283,1,1,1822,0,2
1537179585585,1751,load page of Events,200,OK,execute test 1-1,text,true,,292602,2283,1,1,1748,0,0
1537179587340,1778,load page of Events,200,OK,execute test 1-1,text,true,,292339,2283,1,1,1776,0,3
1537179589121,1271,load page of Events,200,OK,execute test 1-1,text,true,,210661,2283,1,1,1270,0,0
1537179590395,241,load page of Events,200,OK,execute test 1-1,text,true,,825,2283,1,1,241,0,3
1537179590638,240,load page of Events,200,OK,execute test 1-1,text,true,,825,2283,1,1,240,0,0
1537179590879,226,load page of Events,200,OK,execute test 1-1,text,true,,825,2283,1,1,226,0,0
1537179591107,225,load page of Events,200,OK,execute test 1-1,text,true,,825,2283,1,1,225,0,0
1537179591333,263,load page of Events,200,OK,execute test 1-1,text,true,,825,2283,1,1,263,0,0
1537179591597,223,load page of Events,200,OK,execute test 1-1,text,true,,825,2283,1,1,223,0,0
1537179591821,249,load page of Events,200,OK,execute test 1-1,text,true,,825,2283,1,1,249,0,0
1537179592071,229,load page of Events,200,OK,execute test 1-1,text,true,,825,2283,1,1,229,0,0
1537179592301,222,load page of Events,200,OK,execute test 1-1,text,true,,825,2283,1,1,222,0,0
1537179592524,237,load page of Events,200,OK,execute test 1-1,text,true,,825,2283,1,1,237,0,3
1537179592763,214,load page of Events,200,OK,execute test 1-1,text,true,,825,2283,1,1,214,0,0
1537179592979,228,load page of Events,200,OK,execute test 1-1,text,true,,825,2283,1,1,228,0,0
1537179593208,235,load page of Events,200,OK,execute test 1-1,text,true,,825,2283,1,1,235,0,0
1537179593445,255,load page of Events,200,OK,execute test 1-1,text,true,,825,2283,1,1,255,0,0
1537179593701,230,load page of Events,200,OK,execute test 1-1,text,true,,825,2283,1,1,230,0,0
1537179593932,214,load page of Events,200,OK,execute test 1-1,text,true,,825,2283,1,1,214,0,0
1537179594147,1320,load page of Pages,200,OK,execute test 1-1,text,true,,143185,1996,1,1,1318,0,0
1537179595468,1258,load page of Pages,200,OK,execute test 1-1,text,true,,142334,1996,1,1,1257,0,3
1537179596729,13045,load page of Resources,200,OK,execute test 1-1,text,true,,169429,2127,1,1,13044,0,0
1537179609776,12237,load page of Resources,200,OK,execute test 1-1,text,true,,169429,2127,1,1,12236,0,3
1537179622014,12388,load page of Resources,200,OK,execute test 1-1,text,true,,169429,2127,1,1,12387,0,2
1537179634406,12705,load page of Resources,200,OK,execute test 1-1,text,true,,169429,2127,1,1,12704,0,3
1537179647115,12300,load page of Resources,200,OK,execute test 1-1,text,true,,169429,2127,1,1,12298,0,3
1537179659416,12125,load page of Resources,200,OK,execute test 1-1,text,true,,169429,2127,1,1,12124,0,3
1537179671543,12277,load page of Resources,200,OK,execute test 1-1,text,true,,169429,2127,1,1,12275,0,4
1537179683823,11951,load page of Resources,200,OK,execute test 1-1,text,true,,169429,2127,1,1,11950,0,1
1537179695777,12627,load page of Resources,200,OK,execute test 1-1,text,true,,169429,2127,1,1,12626,0,3
1537179708407,12602,load page of Resources,200,OK,execute test 1-1,text,true,,169429,2127,1,1,12600,0,3
1537179721014,12870,load page of Resources,200,OK,execute test 1-1,text,true,,169429,2127,1,1,12868,0,3
1537179733885,12660,load page of Resources,200,OK,execute test 1-1,text,true,,169429,2127,1,1,12659,0,3
1537179746549,11954,load page of Resources,200,OK,execute test 1-1,text,true,,169429,2127,1,1,11953,0,3
1537179758505,12074,load page of Resources,200,OK,execute test 1-1,text,true,,169429,2127,1,1,12073,0,3
1537179770581,13034,load page of Resources,200,OK,execute test 1-1,text,true,,169429,2127,1,1,13032,0,3
1537179783618,12003,load page of Resources,200,OK,execute test 1-1,text,true,,169429,2127,1,1,12001,0,3
1537179795622,12124,load page of Resources,200,OK,execute test 1-1,text,true,,169429,2127,1,1,12123,0,3
1537179807749,12338,load page of Resources,200,OK,execute test 1-1,text,true,,169429,2127,1,1,12336,0,2
1537179820087,11729,load page of Resources,200,OK,execute test 1-1,text,true,,169429,2127,1,1,11727,0,4
1537179831817,11857,load page of Resources,200,OK,execute test 1-1,text,true,,169429,2127,1,1,11856,0,2
1537179843677,87,logout,200,OK,execute test 1-1,,true,,311,343,1,1,87,0,2
1537179843764,5,extract DWRSESSIONID cookie,200,OK,execute test 1-1,text,true,,653,344,1,1,5,0,0
1537179843769,7279,test user login,200,OK,execute test 1-1,text,true,,468,295,1,1,7279,0,0
1537179851050,96,username request,200,OK,execute test 1-1,text,true,,603,276,1,1,96,0,3
1537179851148,61789,SchedulerService,200,OK,execute test 1-1,text,true,,277442,787,1,1,61788,0,0
1537179912940,1898,load page of Events,200,OK,execute test 1-1,text,true,,294290,2282,1,1,1896,0,4
1537179914841,1747,load page of Events,200,OK,execute test 1-1,text,true,,292174,2282,1,1,1744,0,0
1537179916590,1811,load page of Events,200,OK,execute test 1-1,text,true,,297871,2282,1,1,1809,0,2
1537179918404,1696,load page of Events,200,OK,execute test 1-1,text,true,,294770,2282,1,1,1694,0,0
1537179920103,1768,load page of Events,200,OK,execute test 1-1,text,true,,291141,2282,1,1,1766,0,2
1537179921873,1766,load page of Events,200,OK,execute test 1-1,text,true,,295846,2282,1,1,1764,0,0
1537179923641,1669,load page of Events,200,OK,execute test 1-1,text,true,,293415,2282,1,1,1666,0,2
1537179925313,1663,load page of Events,200,OK,execute test 1-1,text,true,,290343,2282,1,1,1661,0,0
1537179926979,1787,load page of Events,200,OK,execute test 1-1,text,true,,297433,2282,1,1,1785,0,2
1537179928768,1654,load page of Events,200,OK,execute test 1-1,text,true,,299584,2282,1,1,1651,0,0
1537179930425,1705,load page of Events,200,OK,execute test 1-1,text,true,,302506,2283,1,1,1703,0,5
1537179932134,1562,load page of Events,200,OK,execute test 1-1,text,true,,294247,2283,1,1,1560,0,0
1537179933699,1862,load page of Events,200,OK,execute test 1-1,text,true,,298165,2283,1,1,1860,0,3
1537179935564,1979,load page of Events,200,OK,execute test 1-1,text,true,,291208,2283,1,1,1977,0,0
1537179937547,1360,load page of Events,200,OK,execute test 1-1,text,true,,258663,2283,1,1,1358,0,3
1537179938909,1299,load page of Events,200,OK,execute test 1-1,text,true,,258825,2283,1,1,1297,0,0
1537179940211,1251,load page of Events,200,OK,execute test 1-1,text,true,,256064,2283,1,1,1249,0,3
1537179941466,1763,load page of Events,200,OK,execute test 1-1,text,true,,295433,2283,1,1,1761,0,0
1537179943232,1684,load page of Events,200,OK,execute test 1-1,text,true,,299657,2283,1,1,1680,0,3
1537179944919,1822,load page of Events,200,OK,execute test 1-1,text,true,,295153,2283,1,1,1820,0,0
1537179946743,1707,load page of Events,200,OK,execute test 1-1,text,true,,294195,2283,1,1,1705,0,2
1537179948453,1712,load page of Events,200,OK,execute test 1-1,text,true,,293300,2283,1,1,1710,0,0
1537179950168,1787,load page of Events,200,OK,execute test 1-1,text,true,,292750,2283,1,1,1785,0,4
1537179951957,1761,load page of Events,200,OK,execute test 1-1,text,true,,292176,2283,1,1,1759,0,0
1537179953721,1760,load page of Events,200,OK,execute test 1-1,text,true,,292965,2283,1,1,1758,0,2
1537179955484,1827,load page of Events,200,OK,execute test 1-1,text,true,,292070,2283,1,1,1826,0,0
1537179957314,1786,load page of Events,200,OK,execute test 1-1,text,true,,292194,2283,1,1,1784,0,3
1537179959102,1832,load page of Events,200,OK,execute test 1-1,text,true,,292191,2283,1,1,1830,0,0
1537179960938,1899,load page of Events,200,OK,execute test 1-1,text,true,,292187,2283,1,1,1897,0,3
1537179962840,2030,load page of Events,200,OK,execute test 1-1,text,true,,292173,2283,1,1,2029,0,0
1537179964872,1937,load page of Events,200,OK,execute test 1-1,text,true,,292756,2283,1,1,1935,0,3
1537179966813,1746,load page of Events,200,OK,execute test 1-1,text,true,,292602,2283,1,1,1744,0,0
1537179968562,1685,load page of Events,200,OK,execute test 1-1,text,true,,292339,2283,1,1,1683,0,3
1537179970250,1303,load page of Events,200,OK,execute test 1-1,text,true,,210661,2283,1,1,1302,0,0
1537179971556,250,load page of Events,200,OK,execute test 1-1,text,true,,825,2283,1,1,250,0,4
1537179971807,244,load page of Events,200,OK,execute test 1-1,text,true,,825,2283,1,1,243,0,0
1537179972052,221,load page of Events,200,OK,execute test 1-1,text,true,,825,2283,1,1,221,0,0
1537179972274,216,load page of Events,200,OK,execute test 1-1,text,true,,825,2283,1,1,216,0,0
1537179972491,240,load page of Events,200,OK,execute test 1-1,text,true,,825,2283,1,1,240,0,0
1537179972732,235,load page of Events,200,OK,execute test 1-1,text,true,,825,2283,1,1,235,0,0
1537179972968,221,load page of Events,200,OK,execute test 1-1,text,true,,825,2283,1,1,221,0,0
1537179973190,240,load page of Events,200,OK,execute test 1-1,text,true,,825,2283,1,1,240,0,0
1537179973431,241,load page of Events,200,OK,execute test 1-1,text,true,,825,2283,1,1,241,0,0
1537179973673,239,load page of Events,200,OK,execute test 1-1,text,true,,825,2283,1,1,239,0,2
1537179973913,227,load page of Events,200,OK,execute test 1-1,text,true,,825,2283,1,1,227,0,0
1537179974141,269,load page of Events,200,OK,execute test 1-1,text,true,,825,2283,1,1,269,0,0
1537179974411,229,load page of Events,200,OK,execute test 1-1,text,true,,825,2283,1,1,229,0,0
1537179974641,231,load page of Events,200,OK,execute test 1-1,text,true,,825,2283,1,1,231,0,0
1537179974872,282,load page of Events,200,OK,execute test 1-1,text,true,,825,2283,1,1,282,0,0
1537179975155,236,load page of Events,200,OK,execute test 1-1,text,true,,825,2283,1,1,236,0,0
1537179975392,1362,load page of Pages,200,OK,execute test 1-1,text,true,,143185,1996,1,1,1361,0,0
1537179976755,1324,load page of Pages,200,OK,execute test 1-1,text,true,,142334,1996,1,1,1323,0,3
1537179978081,12444,load page of Resources,200,OK,execute test 1-1,text,true,,169429,2127,1,1,12443,0,0
1537179990529,12277,load page of Resources,200,OK,execute test 1-1,text,true,,169429,2127,1,1,12274,0,3
1537180002809,12457,load page of Resources,200,OK,execute test 1-1,text,true,,169429,2127,1,1,12456,0,2
1537180015268,11814,load page of Resources,200,OK,execute test 1-1,text,true,,169429,2127,1,1,11812,0,4
1537180027083,12104,load page of Resources,200,OK,execute test 1-1,text,true,,169429,2127,1,1,12103,0,3
1537180039191,12009,load page of Resources,200,OK,execute test 1-1,text,true,,169429,2127,1,1,12008,0,3
1537180051203,12001,load page of Resources,200,OK,execute test 1-1,text,true,,169429,2127,1,1,11999,0,3
1537180063206,13040,load page of Resources,200,OK,execute test 1-1,text,true,,169429,2127,1,1,13038,0,4
1537180076249,12738,load page of Resources,200,OK,execute test 1-1,text,true,,169429,2127,1,1,12737,0,2
1537180088988,12647,load page of Resources,200,OK,execute test 1-1,text,true,,169429,2127,1,1,12647,0,4
1537180101637,11985,load page of Resources,200,OK,execute test 1-1,text,true,,169429,2127,1,1,11984,0,3
1537180113626,12078,load page of Resources,200,OK,execute test 1-1,text,true,,169429,2127,1,1,12077,0,3
1537180125705,11912,load page of Resources,200,OK,execute test 1-1,text,true,,169429,2127,1,1,11911,0,4
1537180137620,11995,load page of Resources,200,OK,execute test 1-1,text,true,,169429,2127,1,1,11993,0,3
1537180149618,11915,load page of Resources,200,OK,execute test 1-1,text,true,,169429,2127,1,1,11914,0,3
1537180161534,12034,load page of Resources,200,OK,execute test 1-1,text,true,,169429,2127,1,1,12032,0,3
1537180173571,12058,load page of Resources,200,OK,execute test 1-1,text,true,,169429,2127,1,1,12057,0,3
1537180185632,11819,load page of Resources,200,OK,execute test 1-1,text,true,,169429,2127,1,1,11818,0,3
1537180197453,12347,load page of Resources,200,OK,execute test 1-1,text,true,,169429,2127,1,1,12346,0,3
1537180209803,11996,load page of Resources,200,OK,execute test 1-1,text,true,,169429,2127,1,1,11995,0,3
1537180221801,91,logout,200,OK,execute test 1-1,,true,,311,343,1,1,91,0,2
1537180221893,6,extract DWRSESSIONID cookie,200,OK,execute test 1-1,text,true,,653,344,1,1,6,0,0
1537180221900,7415,test user login,200,OK,execute test 1-1,text,true,,468,295,1,1,7415,0,0
1537180229316,111,username request,200,OK,execute test 1-1,text,true,,603,276,1,1,111,0,3
1537180229430,64034,SchedulerService,200,OK,execute test 1-1,text,true,,277442,787,1,1,64032,0,0
1537180293467,1851,load page of Events,200,OK,execute test 1-1,text,true,,294290,2282,1,1,1849,0,2
1537180295321,1819,load page of Events,200,OK,execute test 1-1,text,true,,292174,2282,1,1,1817,0,0
1537180297142,1936,load page of Events,200,OK,execute test 1-1,text,true,,297871,2282,1,1,1934,0,2
1537180299081,1980,load page of Events,200,OK,execute test 1-1,text,true,,294770,2282,1,1,1977,0,0
1537180301064,1882,load page of Events,200,OK,execute test 1-1,text,true,,291141,2282,1,1,1880,0,3
1537180302950,1710,load page of Events,200,OK,execute test 1-1,text,true,,295846,2282,1,1,1708,0,0
1537180304663,1992,load page of Events,200,OK,execute test 1-1,text,true,,293415,2282,1,1,1991,0,3
1537180306656,1618,load page of Events,200,OK,execute test 1-1,text,true,,290343,2282,1,1,1615,0,0
1537180308278,1835,load page of Events,200,OK,execute test 1-1,text,true,,297433,2282,1,1,1833,0,3
1537180310116,1757,load page of Events,200,OK,execute test 1-1,text,true,,299584,2282,1,1,1755,0,0
1537180311876,1701,load page of Events,200,OK,execute test 1-1,text,true,,302506,2283,1,1,1699,0,2
1537180313580,1607,load page of Events,200,OK,execute test 1-1,text,true,,294247,2283,1,1,1605,0,0
1537180315189,1697,load page of Events,200,OK,execute test 1-1,text,true,,298165,2283,1,1,1695,0,3
1537180316888,1669,load page of Events,200,OK,execute test 1-1,text,true,,291208,2283,1,1,1666,0,0
1537180318560,1510,load page of Events,200,OK,execute test 1-1,text,true,,258663,2283,1,1,1508,0,3
1537180320074,1389,load page of Events,200,OK,execute test 1-1,text,true,,258825,2283,1,1,1386,0,0
1537180321466,1217,load page of Events,200,OK,execute test 1-1,text,true,,256064,2283,1,1,1215,0,3
1537180322686,1923,load page of Events,200,OK,execute test 1-1,text,true,,295433,2283,1,1,1920,0,0
1537180324612,1914,load page of Events,200,OK,execute test 1-1,text,true,,299657,2283,1,1,1912,0,2
1537180326529,1929,load page of Events,200,OK,execute test 1-1,text,true,,295153,2283,1,1,1927,0,0
1537180328462,1858,load page of Events,200,OK,execute test 1-1,text,true,,294195,2283,1,1,1856,0,4
1537180330324,2059,load page of Events,200,OK,execute test 1-1,text,true,,293300,2283,1,1,2057,0,0
1537180332386,1824,load page of Events,200,OK,execute test 1-1,text,true,,292750,2283,1,1,1822,0,3
1537180334213,1914,load page of Events,200,OK,execute test 1-1,text,true,,292176,2283,1,1,1912,0,0
1537180336130,1840,load page of Events,200,OK,execute test 1-1,text,true,,292965,2283,1,1,1838,0,3
1537180337972,1941,load page of Events,200,OK,execute test 1-1,text,true,,292070,2283,1,1,1938,0,0
1537180339916,1853,load page of Events,200,OK,execute test 1-1,text,true,,292194,2283,1,1,1851,0,3
1537180341770,1865,load page of Events,200,OK,execute test 1-1,text,true,,292191,2283,1,1,1863,0,0
1537180343638,1850,load page of Events,200,OK,execute test 1-1,text,true,,292187,2283,1,1,1848,0,3
1537180345491,1921,load page of Events,200,OK,execute test 1-1,text,true,,292173,2283,1,1,1918,0,0
1537180347415,1715,load page of Events,200,OK,execute test 1-1,text,true,,292756,2283,1,1,1713,0,3
1537180349133,1781,load page of Events,200,OK,execute test 1-1,text,true,,292602,2283,1,1,1779,0,0
1537180350918,1892,load page of Events,200,OK,execute test 1-1,text,true,,292339,2283,1,1,1890,0,3
1537180352812,1423,load page of Events,200,OK,execute test 1-1,text,true,,210661,2283,1,1,1422,0,0
1537180354237,247,load page of Events,200,OK,execute test 1-1,text,true,,825,2283,1,1,247,0,2
1537180354485,246,load page of Events,200,OK,execute test 1-1,text,true,,825,2283,1,1,246,0,0
1537180354732,219,load page of Events,200,OK,execute test 1-1,text,true,,825,2283,1,1,219,0,0
1537180354952,223,load page of Events,200,OK,execute test 1-1,text,true,,825,2283,1,1,223,0,0
1537180355176,229,load page of Events,200,OK,execute test 1-1,text,true,,825,2283,1,1,229,0,0
1537180355406,231,load page of Events,200,OK,execute test 1-1,text,true,,825,2283,1,1,231,0,0
1537180355638,223,load page of Events,200,OK,execute test 1-1,text,true,,825,2283,1,1,223,0,0
1537180355862,231,load page of Events,200,OK,execute test 1-1,text,true,,825,2283,1,1,231,0,0
1537180356094,238,load page of Events,200,OK,execute test 1-1,text,true,,825,2283,1,1,238,0,0
1537180356333,241,load page of Events,200,OK,execute test 1-1,text,true,,825,2283,1,1,241,0,3
1537180356575,221,load page of Events,200,OK,execute test 1-1,text,true,,825,2283,1,1,221,0,0
1537180356797,218,load page of Events,200,OK,execute test 1-1,text,true,,825,2283,1,1,218,0,0
1537180357016,228,load page of Events,200,OK,execute test 1-1,text,true,,825,2283,1,1,228,0,0
1537180357245,229,load page of Events,200,OK,execute test 1-1,text,true,,825,2283,1,1,229,0,0
1537180357474,273,load page of Events,200,OK,execute test 1-1,text,true,,825,2283,1,1,273,0,0
1537180357748,264,load page of Events,200,OK,execute test 1-1,text,true,,825,2283,1,1,264,0,0
1537180358013,1277,load page of Pages,200,OK,execute test 1-1,text,true,,143185,1996,1,1,1276,0,0
1537180359292,1369,load page of Pages,200,OK,execute test 1-1,text,true,,142334,1996,1,1,1368,0,4
1537180360663,13109,load page of Resources,200,OK,execute test 1-1,text,true,,169429,2127,1,1,13107,0,0
1537180373774,13658,load page of Resources,200,OK,execute test 1-1,text,true,,169429,2127,1,1,13657,0,3
1537180387433,12963,load page of Resources,200,OK,execute test 1-1,text,true,,169429,2127,1,1,12962,0,3
1537180400399,13306,load page of Resources,200,OK,execute test 1-1,text,true,,169429,2127,1,1,13304,0,3
1537180413708,12890,load page of Resources,200,OK,execute test 1-1,text,true,,169429,2127,1,1,12888,0,3
1537180426600,12157,load page of Resources,200,OK,execute test 1-1,text,true,,169429,2127,1,1,12156,0,3
1537180438760,12072,load page of Resources,200,OK,execute test 1-1,text,true,,169429,2127,1,1,12071,0,2
1537180450833,13114,load page of Resources,200,OK,execute test 1-1,text,true,,169429,2127,1,1,13112,0,3
1537180463949,12840,load page of Resources,200,OK,execute test 1-1,text,true,,169429,2127,1,1,12839,0,3
1537180476791,12208,load page of Resources,200,OK,execute test 1-1,text,true,,169429,2127,1,1,12207,0,3
1537180489002,12504,load page of Resources,200,OK,execute test 1-1,text,true,,169429,2127,1,1,12503,0,2
1537180501509,11930,load page of Resources,200,OK,execute test 1-1,text,true,,169429,2127,1,1,11929,0,3
1537180513440,12372,load page of Resources,200,OK,execute test 1-1,text,true,,169429,2127,1,1,12370,0,3
1537180525814,14968,load page of Resources,200,OK,execute test 1-1,text,true,,169429,2127,1,1,14967,0,3
1537180540783,11949,load page of Resources,200,OK,execute test 1-1,text,true,,169429,2127,1,1,11947,0,3
1537180552734,12211,load page of Resources,200,OK,execute test 1-1,text,true,,169429,2127,1,1,12210,0,2
1537180564949,12253,load page of Resources,200,OK,execute test 1-1,text,true,,169429,2127,1,1,12252,0,3
1537180577204,12276,load page of Resources,200,OK,execute test 1-1,text,true,,169429,2127,1,1,12274,0,3
1537180589482,11603,load page of Resources,200,OK,execute test 1-1,text,true,,169429,2127,1,1,11602,0,3
1537180601087,12024,load page of Resources,200,OK,execute test 1-1,text,true,,169429,2127,1,1,12022,0,4
1537180613113,118,logout,200,OK,execute test 1-1,,true,,311,343,1,1,118,0,4
1537180613231,7,extract DWRSESSIONID cookie,200,OK,execute test 1-1,text,true,,653,344,1,1,7,0,0
1537180613238,7897,test user login,200,OK,execute test 1-1,text,true,,468,295,1,1,7897,0,0
1537180621138,134,username request,200,OK,execute test 1-1,text,true,,603,276,1,1,134,0,2
1537180621273,65798,SchedulerService,200,OK,execute test 1-1,text,true,,277442,787,1,1,65796,0,0
1537180687074,1818,load page of Events,200,OK,execute test 1-1,text,true,,294290,2282,1,1,1815,0,4
1537180688895,1858,load page of Events,200,OK,execute test 1-1,text,true,,292174,2282,1,1,1856,0,0
1537180690756,1899,load page of Events,200,OK,execute test 1-1,text,true,,297871,2282,1,1,1898,0,3
1537180692658,1798,load page of Events,200,OK,execute test 1-1,text,true,,294770,2282,1,1,1796,0,0
1537180694459,1811,load page of Events,200,OK,execute test 1-1,text,true,,291141,2282,1,1,1809,0,4
1537180696273,1736,load page of Events,200,OK,execute test 1-1,text,true,,295846,2282,1,1,1734,0,0
1537180698012,1669,load page of Events,200,OK,execute test 1-1,text,true,,293415,2282,1,1,1667,0,3
1537180699699,1590,load page of Events,200,OK,execute test 1-1,text,true,,290343,2282,1,1,1588,0,0
1537180701290,1774,load page of Events,200,OK,execute test 1-1,text,true,,297433,2282,1,1,1772,0,4
1537180703066,2212,load page of Events,200,OK,execute test 1-1,text,true,,299584,2282,1,1,2211,0,0
1537180705279,1958,load page of Events,200,OK,execute test 1-1,text,true,,302506,2283,1,1,1956,0,3
1537180707239,1873,load page of Events,200,OK,execute test 1-1,text,true,,294247,2283,1,1,1871,0,0
1537180709114,1850,load page of Events,200,OK,execute test 1-1,text,true,,298165,2283,1,1,1849,0,2
1537180710967,1903,load page of Events,200,OK,execute test 1-1,text,true,,291208,2283,1,1,1901,0,0
1537180712872,1495,load page of Events,200,OK,execute test 1-1,text,true,,258663,2283,1,1,1493,0,3
1537180714369,1244,load page of Events,200,OK,execute test 1-1,text,true,,258825,2283,1,1,1242,0,0
1537180715614,1475,load page of Events,200,OK,execute test 1-1,text,true,,256064,2283,1,1,1473,0,3
1537180717089,1716,load page of Events,200,OK,execute test 1-1,text,true,,295433,2283,1,1,1714,0,0
1537180718806,1760,load page of Events,200,OK,execute test 1-1,text,true,,299657,2283,1,1,1758,0,2
1537180720568,1800,load page of Events,200,OK,execute test 1-1,text,true,,295153,2283,1,1,1798,0,0
1537180722370,1778,load page of Events,200,OK,execute test 1-1,text,true,,294195,2283,1,1,1776,0,3
1537180724150,1842,load page of Events,200,OK,execute test 1-1,text,true,,293300,2283,1,1,1839,0,0
1537180725993,1682,load page of Events,200,OK,execute test 1-1,text,true,,292750,2283,1,1,1680,0,3
1537180727676,1663,load page of Events,200,OK,execute test 1-1,text,true,,292176,2283,1,1,1661,0,0
1537180729340,1742,load page of Events,200,OK,execute test 1-1,text,true,,292965,2283,1,1,1741,0,4
1537180731084,1727,load page of Events,200,OK,execute test 1-1,text,true,,292070,2283,1,1,1725,0,0
1537180732813,1689,load page of Events,200,OK,execute test 1-1,text,true,,292194,2283,1,1,1687,0,2
1537180734503,1707,load page of Events,200,OK,execute test 1-1,text,true,,292191,2283,1,1,1705,0,0
1537180736212,1950,load page of Events,200,OK,execute test 1-1,text,true,,292187,2283,1,1,1948,0,2
1537180738165,1940,load page of Events,200,OK,execute test 1-1,text,true,,292173,2283,1,1,1938,0,0
1537180740108,2122,load page of Events,200,OK,execute test 1-1,text,true,,292756,2283,1,1,2120,0,2
1537180742231,1880,load page of Events,200,OK,execute test 1-1,text,true,,292602,2283,1,1,1879,0,3
1537180744113,2114,load page of Events,200,OK,execute test 1-1,text,true,,292339,2283,1,1,2112,0,0
1537180746229,1804,load page of Events,200,OK,execute test 1-1,text,true,,210661,2283,1,1,1802,0,2
1537180748034,230,load page of Events,200,OK,execute test 1-1,text,true,,825,2283,1,1,230,0,0
1537180748265,224,load page of Events,200,OK,execute test 1-1,text,true,,825,2283,1,1,224,0,3
1537180748490,232,load page of Events,200,OK,execute test 1-1,text,true,,825,2283,1,1,232,0,0
1537180748723,382,load page of Events,200,OK,execute test 1-1,text,true,,825,2283,1,1,382,0,0
1537180749106,214,load page of Events,200,OK,execute test 1-1,text,true,,825,2283,1,1,214,0,0
1537180749321,239,load page of Events,200,OK,execute test 1-1,text,true,,825,2283,1,1,239,0,0
1537180749561,237,load page of Events,200,OK,execute test 1-1,text,true,,825,2283,1,1,237,0,0
1537180749799,229,load page of Events,200,OK,execute test 1-1,text,true,,825,2283,1,1,229,0,0
1537180750028,219,load page of Events,200,OK,execute test 1-1,text,true,,825,2283,1,1,219,0,0
1537180750248,238,load page of Events,200,OK,execute test 1-1,text,true,,825,2283,1,1,238,0,0
1537180750487,240,load page of Events,200,OK,execute test 1-1,text,true,,825,2283,1,1,240,0,3
1537180750728,229,load page of Events,200,OK,execute test 1-1,text,true,,825,2283,1,1,229,0,0
1537180750957,236,load page of Events,200,OK,execute test 1-1,text,true,,825,2283,1,1,236,0,0
1537180751194,251,load page of Events,200,OK,execute test 1-1,text,true,,825,2283,1,1,251,0,0
1537180751446,280,load page of Events,200,OK,execute test 1-1,text,true,,825,2283,1,1,280,0,0
1537180751726,289,load page of Events,200,OK,execute test 1-1,text,true,,825,2283,1,1,289,0,0
1537180752016,1532,load page of Pages,200,OK,execute test 1-1,text,true,,143185,1996,1,1,1532,0,0
1537180753549,1517,load page of Pages,200,OK,execute test 1-1,text,true,,142334,1996,1,1,1517,0,4
1537180755068,12542,load page of Resources,200,OK,execute test 1-1,text,true,,169429,2127,1,1,12541,0,0
1537180767611,13487,load page of Resources,200,OK,execute test 1-1,text,true,,169429,2127,1,1,13485,0,3
1537180781101,11902,load page of Resources,200,OK,execute test 1-1,text,true,,169429,2127,1,1,11901,0,4
1537180793003,11782,load page of Resources,200,OK,execute test 1-1,text,true,,169429,2127,1,1,11781,0,2
1537180804787,12263,load page of Resources,200,OK,execute test 1-1,text,true,,169429,2127,1,1,12261,0,3
1537180817051,12081,load page of Resources,200,OK,execute test 1-1,text,true,,169429,2127,1,1,12080,0,3
1537180829134,12106,load page of Resources,200,OK,execute test 1-1,text,true,,169429,2127,1,1,12104,0,3
1537180841241,12029,load page of Resources,200,OK,execute test 1-1,text,true,,169429,2127,1,1,12028,0,2
1537180853271,12098,load page of Resources,200,OK,execute test 1-1,text,true,,169429,2127,1,1,12096,0,4
1537180865371,11879,load page of Resources,200,OK,execute test 1-1,text,true,,169429,2127,1,1,11878,0,3
1537180877252,11664,load page of Resources,200,OK,execute test 1-1,text,true,,169429,2127,1,1,11662,0,2
1537180888916,12267,load page of Resources,200,OK,execute test 1-1,text,true,,169429,2127,1,1,12266,0,3
1537180901184,11760,load page of Resources,200,OK,execute test 1-1,text,true,,169429,2127,1,1,11758,0,3
1537180912946,15781,load page of Resources,200,OK,execute test 1-1,text,true,,169429,2127,1,1,15779,0,2
1537180928727,12247,load page of Resources,200,OK,execute test 1-1,text,true,,169429,2127,1,1,12246,0,2
1537180940976,13735,load page of Resources,200,OK,execute test 1-1,text,true,,169429,2127,1,1,13734,0,1
1537180954712,12027,load page of Resources,200,OK,execute test 1-1,text,true,,169429,2127,1,1,12026,0,2
1537180966741,12380,load page of Resources,200,OK,execute test 1-1,text,true,,169429,2127,1,1,12379,0,3
1537180979122,12201,load page of Resources,200,OK,execute test 1-1,text,true,,169429,2127,1,1,12200,0,1
1537180991323,12097,load page of Resources,200,OK,execute test 1-1,text,true,,169429,2127,1,1,12096,0,3
1537181003421,103,logout,200,OK,execute test 1-1,,true,,311,343,1,1,103,0,3
1537181003525,4,extract DWRSESSIONID cookie,200,OK,execute test 1-1,text,true,,652,344,1,1,4,0,0
1537181003530,8753,test user login,200,OK,execute test 1-1,text,true,,467,295,1,1,8753,0,0
1537181012286,93,username request,200,OK,execute test 1-1,text,true,,603,275,1,1,93,0,3
1537181012381,64351,SchedulerService,200,OK,execute test 1-1,text,true,,277442,786,1,1,64349,0,0
1537181076732,1895,load page of Events,200,OK,execute test 1-1,text,true,,294290,2281,1,1,1894,0,2
1537181078629,1616,load page of Events,200,OK,execute test 1-1,text,true,,292174,2281,1,1,1615,0,0
1537181080247,1655,load page of Events,200,OK,execute test 1-1,text,true,,297871,2281,1,1,1654,0,3
1537181081904,1650,load page of Events,200,OK,execute test 1-1,text,true,,294770,2281,1,1,1648,0,0
1537181083555,1804,load page of Events,200,OK,execute test 1-1,text,true,,291141,2281,1,1,1801,0,3
1537181085360,1793,load page of Events,200,OK,execute test 1-1,text,true,,295846,2281,1,1,1791,0,0
1537181087155,1893,load page of Events,200,OK,execute test 1-1,text,true,,293415,2281,1,1,1892,0,3
1537181089049,1575,load page of Events,200,OK,execute test 1-1,text,true,,290343,2281,1,1,1573,0,0
1537181090625,1727,load page of Events,200,OK,execute test 1-1,text,true,,297433,2281,1,1,1725,0,3
1537181092353,1679,load page of Events,200,OK,execute test 1-1,text,true,,299584,2281,1,1,1677,0,0
1537181094033,1751,load page of Events,200,OK,execute test 1-1,text,true,,302506,2282,1,1,1749,0,3
1537181095786,1594,load page of Events,200,OK,execute test 1-1,text,true,,294247,2282,1,1,1592,0,0
1537181097382,1818,load page of Events,200,OK,execute test 1-1,text,true,,298165,2282,1,1,1815,0,2
1537181099201,1807,load page of Events,200,OK,execute test 1-1,text,true,,291208,2282,1,1,1805,0,0
1537181101010,1353,load page of Events,200,OK,execute test 1-1,text,true,,258663,2282,1,1,1351,0,2
1537181102364,1282,load page of Events,200,OK,execute test 1-1,text,true,,258825,2282,1,1,1281,0,0
1537181103649,1436,load page of Events,200,OK,execute test 1-1,text,true,,256064,2282,1,1,1434,0,2
1537181105086,1734,load page of Events,200,OK,execute test 1-1,text,true,,295433,2282,1,1,1732,0,0
1537181106822,1899,load page of Events,200,OK,execute test 1-1,text,true,,299657,2282,1,1,1897,0,2
1537181108723,1860,load page of Events,200,OK,execute test 1-1,text,true,,295153,2282,1,1,1857,0,0
1537181110584,1926,load page of Events,200,OK,execute test 1-1,text,true,,294195,2282,1,1,1924,0,3
1537181112511,1808,load page of Events,200,OK,execute test 1-1,text,true,,293300,2282,1,1,1806,0,0
1537181114321,1963,load page of Events,200,OK,execute test 1-1,text,true,,292750,2282,1,1,1961,0,3
1537181116285,2086,load page of Events,200,OK,execute test 1-1,text,true,,292176,2282,1,1,2084,0,0
1537181118373,2100,load page of Events,200,OK,execute test 1-1,text,true,,292965,2282,1,1,2098,0,2
1537181120474,1807,load page of Events,200,OK,execute test 1-1,text,true,,292070,2282,1,1,1806,0,3
1537181122282,1989,load page of Events,200,OK,execute test 1-1,text,true,,292194,2282,1,1,1987,0,0
1537181124272,1981,load page of Events,200,OK,execute test 1-1,text,true,,292191,2282,1,1,1980,0,2
1537181126254,1882,load page of Events,200,OK,execute test 1-1,text,true,,292187,2282,1,1,1880,0,0
1537181128137,2287,load page of Events,200,OK,execute test 1-1,text,true,,292173,2282,1,1,2285,0,2
1537181130427,2241,load page of Events,200,OK,execute test 1-1,text,true,,292756,2282,1,1,2239,0,3
1537181132670,2034,load page of Events,200,OK,execute test 1-1,text,true,,292602,2282,1,1,2032,0,2
1537181134706,2072,load page of Events,200,OK,execute test 1-1,text,true,,292339,2282,1,1,2069,0,2
1537181136779,1438,load page of Events,200,OK,execute test 1-1,text,true,,210661,2282,1,1,1436,0,3
1537181138218,247,load page of Events,200,OK,execute test 1-1,text,true,,825,2282,1,1,247,0,0
1537181138465,242,load page of Events,200,OK,execute test 1-1,text,true,,825,2282,1,1,242,0,0
1537181138708,242,load page of Events,200,OK,execute test 1-1,text,true,,825,2282,1,1,242,0,0
1537181138951,263,load page of Events,200,OK,execute test 1-1,text,true,,825,2282,1,1,263,0,3
1537181139215,235,load page of Events,200,OK,execute test 1-1,text,true,,825,2282,1,1,235,0,0
1537181139451,250,load page of Events,200,OK,execute test 1-1,text,true,,825,2282,1,1,250,0,0
1537181139702,260,load page of Events,200,OK,execute test 1-1,text,true,,825,2282,1,1,260,0,0
1537181139963,227,load page of Events,200,OK,execute test 1-1,text,true,,825,2282,1,1,227,0,0
1537181140191,229,load page of Events,200,OK,execute test 1-1,text,true,,825,2282,1,1,229,0,0
1537181140421,251,load page of Events,200,OK,execute test 1-1,text,true,,825,2282,1,1,251,0,0
1537181140673,232,load page of Events,200,OK,execute test 1-1,text,true,,825,2282,1,1,232,0,0
1537181140905,232,load page of Events,200,OK,execute test 1-1,text,true,,825,2282,1,1,232,0,0
1537181141137,253,load page of Events,200,OK,execute test 1-1,text,true,,825,2282,1,1,253,0,3
1537181141391,255,load page of Events,200,OK,execute test 1-1,text,true,,825,2282,1,1,255,0,0
1537181141647,238,load page of Events,200,OK,execute test 1-1,text,true,,825,2282,1,1,238,0,0
1537181141886,251,load page of Events,200,OK,execute test 1-1,text,true,,825,2282,1,1,251,0,0
1537181142138,1461,load page of Pages,200,OK,execute test 1-1,text,true,,143185,1995,1,1,1460,0,0
1537181143600,1511,load page of Pages,200,OK,execute test 1-1,text,true,,142334,1995,1,1,1511,0,2
1537181145112,12270,load page of Resources,200,OK,execute test 1-1,text,true,,169429,2126,1,1,12269,0,0
1537181157384,12369,load page of Resources,200,OK,execute test 1-1,text,true,,169429,2126,1,1,12367,0,3
1537181169753,12035,load page of Resources,200,OK,execute test 1-1,text,true,,169429,2126,1,1,12033,0,4
1537181181790,12024,load page of Resources,200,OK,execute test 1-1,text,true,,169429,2126,1,1,12023,0,4
1537181193816,11867,load page of Resources,200,OK,execute test 1-1,text,true,,169429,2126,1,1,11866,0,1
1537181205683,11963,load page of Resources,200,OK,execute test 1-1,text,true,,169429,2126,1,1,11962,0,3
1537181217648,12889,load page of Resources,200,OK,execute test 1-1,text,true,,169429,2126,1,1,12888,0,2
1537181230537,13543,load page of Resources,200,OK,execute test 1-1,text,true,,169429,2126,1,1,13542,0,3
1537181244083,11900,load page of Resources,200,OK,execute test 1-1,text,true,,169429,2126,1,1,11899,0,3
1537181255985,12393,load page of Resources,200,OK,execute test 1-1,text,true,,169429,2126,1,1,12392,0,2
1537181268379,12097,load page of Resources,200,OK,execute test 1-1,text,true,,169429,2126,1,1,12096,0,3
1537181280479,12354,load page of Resources,200,OK,execute test 1-1,text,true,,169429,2126,1,1,12353,0,3
1537181292833,12450,load page of Resources,200,OK,execute test 1-1,text,true,,169429,2126,1,1,12448,0,3
1537181305284,12269,load page of Resources,200,OK,execute test 1-1,text,true,,169429,2126,1,1,12268,0,3
1537181317555,12403,load page of Resources,200,OK,execute test 1-1,text,true,,169429,2126,1,1,12402,0,3
1537181329959,12128,load page of Resources,200,OK,execute test 1-1,text,true,,169429,2126,1,1,12127,0,3
1537181342090,12251,load page of Resources,200,OK,execute test 1-1,text,true,,169429,2126,1,1,12250,0,3
1537181354342,12031,load page of Resources,200,OK,execute test 1-1,text,true,,169429,2126,1,1,12029,0,3
1537181366374,12127,load page of Resources,200,OK,execute test 1-1,text,true,,169429,2126,1,1,12126,0,4
1537181378504,12102,load page of Resources,200,OK,execute test 1-1,text,true,,169429,2126,1,1,12101,0,2
1537181390606,98,logout,200,OK,execute test 1-1,,true,,311,342,1,1,98,0,4
1537181390706,6,extract DWRSESSIONID cookie,200,OK,execute test 1-1,text,true,,653,344,1,1,6,0,0
1537181390712,7314,test user login,200,OK,execute test 1-1,text,true,,468,295,1,1,7314,0,0
1537181398027,102,username request,200,OK,execute test 1-1,text,true,,603,276,1,1,101,0,2
1537181398131,67362,SchedulerService,200,OK,execute test 1-1,text,true,,277442,787,1,1,67360,0,0
1537181465495,1635,load page of Events,200,OK,execute test 1-1,text,true,,294290,2282,1,1,1633,0,3
1537181467132,1808,load page of Events,200,OK,execute test 1-1,text,true,,292174,2282,1,1,1806,0,0
1537181468941,1875,load page of Events,200,OK,execute test 1-1,text,true,,297871,2282,1,1,1871,0,3
1537181470818,1792,load page of Events,200,OK,execute test 1-1,text,true,,294770,2282,1,1,1790,0,0
1537181472613,1695,load page of Events,200,OK,execute test 1-1,text,true,,291141,2282,1,1,1693,0,2
1537181474309,2223,load page of Events,200,OK,execute test 1-1,text,true,,295846,2282,1,1,2222,0,0
1537181476533,1641,load page of Events,200,OK,execute test 1-1,text,true,,293415,2282,1,1,1639,0,4
1537181478176,1561,load page of Events,200,OK,execute test 1-1,text,true,,290343,2282,1,1,1558,0,0
1537181479739,1796,load page of Events,200,OK,execute test 1-1,text,true,,297433,2282,1,1,1794,0,2
1537181481536,1785,load page of Events,200,OK,execute test 1-1,text,true,,299584,2282,1,1,1783,0,0
1537181483322,1780,load page of Events,200,OK,execute test 1-1,text,true,,302506,2283,1,1,1779,0,2
1537181485104,1847,load page of Events,200,OK,execute test 1-1,text,true,,294247,2283,1,1,1846,0,0
1537181486951,1732,load page of Events,200,OK,execute test 1-1,text,true,,298165,2283,1,1,1731,0,2
1537181488685,1746,load page of Events,200,OK,execute test 1-1,text,true,,291208,2283,1,1,1745,0,0
1537181490434,1365,load page of Events,200,OK,execute test 1-1,text,true,,258663,2283,1,1,1365,0,3
1537181491800,1410,load page of Events,200,OK,execute test 1-1,text,true,,258825,2283,1,1,1408,0,0
1537181493212,1365,load page of Events,200,OK,execute test 1-1,text,true,,256064,2283,1,1,1363,0,4
1537181494578,1834,load page of Events,200,OK,execute test 1-1,text,true,,295433,2283,1,1,1832,0,0
1537181496413,1856,load page of Events,200,OK,execute test 1-1,text,true,,299657,2283,1,1,1854,0,4
1537181498271,1969,load page of Events,200,OK,execute test 1-1,text,true,,295153,2283,1,1,1967,0,0
1537181500241,2043,load page of Events,200,OK,execute test 1-1,text,true,,294195,2283,1,1,2041,0,3
1537181502285,1941,load page of Events,200,OK,execute test 1-1,text,true,,293300,2283,1,1,1939,0,2
1537181504228,2531,load page of Events,200,OK,execute test 1-1,text,true,,292750,2283,1,1,2529,0,0
1537181506761,2609,load page of Events,200,OK,execute test 1-1,text,true,,292176,2283,1,1,2607,0,3
1537181509372,2261,load page of Events,200,OK,execute test 1-1,text,true,,292965,2283,1,1,2259,0,3
1537181511634,1845,load page of Events,200,OK,execute test 1-1,text,true,,292070,2283,1,1,1842,0,2
1537181513481,1964,load page of Events,200,OK,execute test 1-1,text,true,,292194,2283,1,1,1963,0,0
1537181515447,1854,load page of Events,200,OK,execute test 1-1,text,true,,292191,2283,1,1,1852,0,3
1537181517302,1887,load page of Events,200,OK,execute test 1-1,text,true,,292187,2283,1,1,1885,0,0
1537181519191,1904,load page of Events,200,OK,execute test 1-1,text,true,,292173,2283,1,1,1903,0,2
1537181521098,1945,load page of Events,200,OK,execute test 1-1,text,true,,292756,2283,1,1,1942,0,0
1537181523044,2103,load page of Events,200,OK,execute test 1-1,text,true,,292602,2283,1,1,2101,0,3
1537181525148,2247,load page of Events,200,OK,execute test 1-1,text,true,,292339,2283,1,1,2245,0,2
1537181527396,1489,load page of Events,200,OK,execute test 1-1,text,true,,210661,2283,1,1,1486,0,4
1537181528886,258,load page of Events,200,OK,execute test 1-1,text,true,,825,2283,1,1,258,0,0
1537181529145,253,load page of Events,200,OK,execute test 1-1,text,true,,825,2283,1,1,253,0,0
1537181529399,224,load page of Events,200,OK,execute test 1-1,text,true,,825,2283,1,1,224,0,2
1537181529624,234,load page of Events,200,OK,execute test 1-1,text,true,,825,2283,1,1,234,0,0
1537181529859,225,load page of Events,200,OK,execute test 1-1,text,true,,825,2283,1,1,225,0,0
1537181530085,220,load page of Events,200,OK,execute test 1-1,text,true,,825,2283,1,1,220,0,0
1537181530306,244,load page of Events,200,OK,execute test 1-1,text,true,,825,2283,1,1,244,0,0
1537181530551,228,load page of Events,200,OK,execute test 1-1,text,true,,825,2283,1,1,228,0,0
1537181530780,257,load page of Events,200,OK,execute test 1-1,text,true,,825,2283,1,1,257,0,0
1537181531038,242,load page of Events,200,OK,execute test 1-1,text,true,,825,2283,1,1,242,0,0
1537181531281,259,load page of Events,200,OK,execute test 1-1,text,true,,825,2283,1,1,259,0,0
1537181531540,234,load page of Events,200,OK,execute test 1-1,text,true,,825,2283,1,1,234,0,3
1537181531776,251,load page of Events,200,OK,execute test 1-1,text,true,,825,2283,1,1,251,0,0
1537181532028,263,load page of Events,200,OK,execute test 1-1,text,true,,825,2283,1,1,263,0,0
1537181532292,225,load page of Events,200,OK,execute test 1-1,text,true,,825,2283,1,1,225,0,0
1537181532518,226,load page of Events,200,OK,execute test 1-1,text,true,,825,2283,1,1,226,0,0
1537181532745,1345,load page of Pages,200,OK,execute test 1-1,text,true,,143185,1996,1,1,1344,0,0
1537181534091,1374,load page of Pages,200,OK,execute test 1-1,text,true,,142334,1996,1,1,1372,0,2
1537181535466,12146,load page of Resources,200,OK,execute test 1-1,text,true,,169429,2127,1,1,12145,0,0
1537181547613,12051,load page of Resources,200,OK,execute test 1-1,text,true,,169429,2127,1,1,12049,0,2
1537181559665,12180,load page of Resources,200,OK,execute test 1-1,text,true,,169429,2127,1,1,12178,0,2
1537181571847,11897,load page of Resources,200,OK,execute test 1-1,text,true,,169429,2127,1,1,11896,0,3
1537181583745,12480,load page of Resources,200,OK,execute test 1-1,text,true,,169429,2127,1,1,12478,0,3
1537181596226,12567,load page of Resources,200,OK,execute test 1-1,text,true,,169429,2127,1,1,12566,0,3
1537181608796,11939,load page of Resources,200,OK,execute test 1-1,text,true,,169429,2127,1,1,11938,0,2
1537181620735,11904,load page of Resources,200,OK,execute test 1-1,text,true,,169429,2127,1,1,11903,0,3
1537181632641,11679,load page of Resources,200,OK,execute test 1-1,text,true,,169429,2127,1,1,11678,0,3
1537181644322,12036,load page of Resources,200,OK,execute test 1-1,text,true,,169429,2127,1,1,12035,0,3
1537181656359,12041,load page of Resources,200,OK,execute test 1-1,text,true,,169429,2127,1,1,12040,0,3
1537181668403,11841,load page of Resources,200,OK,execute test 1-1,text,true,,169429,2127,1,1,11841,0,3
1537181680245,12200,load page of Resources,200,OK,execute test 1-1,text,true,,169429,2127,1,1,12199,0,3
1537181692445,12421,load page of Resources,200,OK,execute test 1-1,text,true,,169429,2127,1,1,12420,0,3
1537181704869,12495,load page of Resources,200,OK,execute test 1-1,text,true,,169429,2127,1,1,12495,0,3
1537181717365,11774,load page of Resources,200,OK,execute test 1-1,text,true,,169429,2127,1,1,11774,0,3
1537181729141,11960,load page of Resources,200,OK,execute test 1-1,text,true,,169429,2127,1,1,11959,0,6
1537181741103,12149,load page of Resources,200,OK,execute test 1-1,text,true,,169429,2127,1,1,12148,0,3
1537181753252,11937,load page of Resources,200,OK,execute test 1-1,text,true,,169429,2127,1,1,11936,0,3
1537181765191,12474,load page of Resources,200,OK,execute test 1-1,text,true,,169429,2127,1,1,12473,0,3
1537181777667,100,logout,200,OK,execute test 1-1,,true,,311,343,1,1,100,0,3
1537181777768,5,extract DWRSESSIONID cookie,200,OK,execute test 1-1,text,true,,652,344,1,1,5,0,0
1537181777773,9595,test user login,200,OK,execute test 1-1,text,true,,468,295,1,1,9595,0,0
1537181787368,139,username request,200,OK,execute test 1-1,text,true,,603,276,1,1,139,0,2
1537181787509,67652,SchedulerService,200,OK,execute test 1-1,text,true,,277442,787,1,1,67651,0,0
1537181855163,1759,load page of Events,200,OK,execute test 1-1,text,true,,294290,2282,1,1,1757,0,2
1537181856923,1833,load page of Events,200,OK,execute test 1-1,text,true,,292174,2282,1,1,1832,0,0
1537181858758,1672,load page of Events,200,OK,execute test 1-1,text,true,,297871,2282,1,1,1671,0,2
1537181860432,1700,load page of Events,200,OK,execute test 1-1,text,true,,294770,2282,1,1,1698,0,0
1537181862133,1612,load page of Events,200,OK,execute test 1-1,text,true,,291141,2282,1,1,1611,0,2
1537181863747,1693,load page of Events,200,OK,execute test 1-1,text,true,,295846,2282,1,1,1691,0,0
1537181865442,1807,load page of Events,200,OK,execute test 1-1,text,true,,293415,2282,1,1,1806,0,2
1537181867251,1740,load page of Events,200,OK,execute test 1-1,text,true,,290343,2282,1,1,1738,0,0
1537181868992,1755,load page of Events,200,OK,execute test 1-1,text,true,,297433,2282,1,1,1753,0,3
1537181870748,1835,load page of Events,200,OK,execute test 1-1,text,true,,299584,2282,1,1,1832,0,0
1537181872585,2123,load page of Events,200,OK,execute test 1-1,text,true,,302506,2283,1,1,2122,0,3
1537181874710,1875,load page of Events,200,OK,execute test 1-1,text,true,,294247,2283,1,1,1873,0,3
1537181876587,2004,load page of Events,200,OK,execute test 1-1,text,true,,298165,2283,1,1,2002,0,0
1537181878593,1875,load page of Events,200,OK,execute test 1-1,text,true,,291208,2283,1,1,1873,0,2
1537181880470,1685,load page of Events,200,OK,execute test 1-1,text,true,,258663,2283,1,1,1684,0,0
1537181882156,1318,load page of Events,200,OK,execute test 1-1,text,true,,258825,2283,1,1,1317,0,2
1537181883475,1608,load page of Events,200,OK,execute test 1-1,text,true,,256064,2283,1,1,1606,0,0
1537181885085,2465,load page of Events,200,OK,execute test 1-1,text,true,,295433,2283,1,1,2463,0,2
1537181887551,2093,load page of Events,200,OK,execute test 1-1,text,true,,299657,2283,1,1,2092,0,4
1537181889646,2180,load page of Events,200,OK,execute test 1-1,text,true,,295153,2283,1,1,2179,0,2
1537181891828,2082,load page of Events,200,OK,execute test 1-1,text,true,,294195,2283,1,1,2081,0,2
1537181893911,1977,load page of Events,200,OK,execute test 1-1,text,true,,293300,2283,1,1,1976,0,3
1537181895890,2130,load page of Events,200,OK,execute test 1-1,text,true,,292750,2283,1,1,2128,0,0
1537181898023,1978,load page of Events,200,OK,execute test 1-1,text,true,,292176,2283,1,1,1976,0,3
1537181900003,1839,load page of Events,200,OK,execute test 1-1,text,true,,292965,2283,1,1,1837,0,0
1537181901843,2289,load page of Events,200,OK,execute test 1-1,text,true,,292070,2283,1,1,2287,0,2
1537181904133,2174,load page of Events,200,OK,execute test 1-1,text,true,,292194,2283,1,1,2172,0,2
1537181906308,2014,load page of Events,200,OK,execute test 1-1,text,true,,292191,2283,1,1,2013,0,3
1537181908323,1938,load page of Events,200,OK,execute test 1-1,text,true,,292187,2283,1,1,1936,0,2
1537181910264,2073,load page of Events,200,OK,execute test 1-1,text,true,,292173,2283,1,1,2071,0,0
1537181912339,1863,load page of Events,200,OK,execute test 1-1,text,true,,292756,2283,1,1,1861,0,2
1537181914203,2072,load page of Events,200,OK,execute test 1-1,text,true,,292602,2283,1,1,2071,0,0
1537181916277,1776,load page of Events,200,OK,execute test 1-1,text,true,,292339,2283,1,1,1775,0,2
1537181918054,1446,load page of Events,200,OK,execute test 1-1,text,true,,210661,2283,1,1,1445,0,0
1537181919501,256,load page of Events,200,OK,execute test 1-1,text,true,,825,2283,1,1,256,0,4
1537181919758,254,load page of Events,200,OK,execute test 1-1,text,true,,825,2283,1,1,253,0,0
1537181920013,233,load page of Events,200,OK,execute test 1-1,text,true,,825,2283,1,1,233,0,0
1537181920246,231,load page of Events,200,OK,execute test 1-1,text,true,,825,2283,1,1,231,0,0
1537181920478,240,load page of Events,200,OK,execute test 1-1,text,true,,825,2283,1,1,240,0,0
1537181920719,248,load page of Events,200,OK,execute test 1-1,text,true,,825,2283,1,1,248,0,0
1537181920968,255,load page of Events,200,OK,execute test 1-1,text,true,,825,2283,1,1,255,0,0
1537181921224,281,load page of Events,200,OK,execute test 1-1,text,true,,825,2283,1,1,281,0,0
1537181921506,268,load page of Events,200,OK,execute test 1-1,text,true,,825,2283,1,1,268,0,2
1537181921774,223,load page of Events,200,OK,execute test 1-1,text,true,,825,2283,1,1,223,0,0
1537181921998,216,load page of Events,200,OK,execute test 1-1,text,true,,825,2283,1,1,216,0,0
1537181922214,232,load page of Events,200,OK,execute test 1-1,text,true,,825,2283,1,1,232,0,0
1537181922447,269,load page of Events,200,OK,execute test 1-1,text,true,,825,2283,1,1,269,0,0
1537181922716,239,load page of Events,200,OK,execute test 1-1,text,true,,825,2283,1,1,239,0,0
1537181922955,231,load page of Events,200,OK,execute test 1-1,text,true,,825,2283,1,1,231,0,0
1537181923187,228,load page of Events,200,OK,execute test 1-1,text,true,,825,2283,1,1,228,0,0
1537181923416,1400,load page of Pages,200,OK,execute test 1-1,text,true,,143185,1996,1,1,1399,0,0
1537181924817,1549,load page of Pages,200,OK,execute test 1-1,text,true,,142334,1996,1,1,1548,0,2
1537181926367,12122,load page of Resources,200,OK,execute test 1-1,text,true,,169429,2127,1,1,12121,0,0
1537181938491,12203,load page of Resources,200,OK,execute test 1-1,text,true,,169429,2127,1,1,12202,0,2
1537181950694,12132,load page of Resources,200,OK,execute test 1-1,text,true,,169429,2127,1,1,12131,0,2
1537181962827,12122,load page of Resources,200,OK,execute test 1-1,text,true,,169429,2127,1,1,12121,0,2
1537181974952,12108,load page of Resources,200,OK,execute test 1-1,text,true,,169429,2127,1,1,12106,0,3
1537181987059,15103,load page of Resources,200,OK,execute test 1-1,text,true,,169429,2127,1,1,15102,0,2
1537182002164,12060,load page of Resources,200,OK,execute test 1-1,text,true,,169429,2127,1,1,12059,0,2
1537182014227,12658,load page of Resources,200,OK,execute test 1-1,text,true,,169429,2127,1,1,12657,0,2
1537182026885,12402,load page of Resources,200,OK,execute test 1-1,text,true,,169429,2127,1,1,12401,0,3
1537182039288,12367,load page of Resources,200,OK,execute test 1-1,text,true,,169429,2127,1,1,12366,0,3
1537182051657,12315,load page of Resources,200,OK,execute test 1-1,text,true,,169429,2127,1,1,12313,0,3
1537182063973,12846,load page of Resources,200,OK,execute test 1-1,text,true,,169429,2127,1,1,12845,0,3
1537182076821,12448,load page of Resources,200,OK,execute test 1-1,text,true,,169429,2127,1,1,12446,0,3
1537182089269,11974,load page of Resources,200,OK,execute test 1-1,text,true,,169429,2127,1,1,11973,0,2
